  0
SECTION
  2
HEADER
  9
$ACADVER
  1
AC1009
  9
$INSBASE
 10
0.0
 20
0.0
 30
0.0
  9
$EXTMIN
 10
0.0
 20
0.0
 30
0.0
  9
$EXTMAX
 10
0.0
 20
0.0
 30
0.0
  0
ENDSEC
  0
SECTION
  2
TABLES
  0
TABLE
  2
VPORT
 70
0
  0
ENDTAB
  0
TABLE
  2
LTYPE
 70
1
  0
LTYPE
  2
CONTINUOUS
 70
0
  3
Solid line
 72
65
 73
0
 40
0.0
  0
ENDTAB
  0
TABLE
  2
LAYER
 70
1
  0
LAYER
  2
0
 70
64
 62
7
  6
continuous
  0
ENDTAB
  0
TABLE
  2
STYLE
 70
1
  0
STYLE
  2
STANDARD
 70
0
 40
0
 41
1.0
 50
0.0
 71
0
 42
1
 3
ARIAL.TTF
 4

  0
ENDTAB
  0
TABLE
  2
VIEW
 70
0
  0
ENDTAB
  0
ENDSEC
  0
SECTION
  2
BLOCKS
  0
BLOCK
  8
0
  2
PAD
 70
0
 10
0.0
 20
0.0
 30
0.0
  3
PAD
  0
LINE
  8
0
 62
0
 10
-140.0
 20
62.5
 30
0.0
 11
-140.0
 21
57.5
 31
0.0
  0
LINE
  8
0
 62
0
 10
-140.0
 20
62.5
 30
0.0
 11
140.0
 21
62.5
 31
0.0
  0
LINE
  8
0
 62
0
 10
140.0
 20
62.5
 30
0.0
 11
140.0
 21
57.5
 31
0.0
  0
LINE
  8
0
 62
0
 10
140.0
 20
57.5
 30
0.0
 11
142.9
 21
57.5
 31
0.0
  0
LINE
  8
0
 62
0
 10
142.9
 20
57.5
 30
0.0
 11
142.9
 21
52.5
 31
0.0
  0
LINE
  8
0
 62
0
 10
142.9
 20
52.5
 30
0.0
 11
140.0
 21
52.5
 31
0.0
  0
LINE
  8
0
 62
0
 10
140.0
 20
52.5
 30
0.0
 11
140.0
 21
47.5
 31
0.0
  0
LINE
  8
0
 62
0
 10
140.0
 20
47.5
 30
0.0
 11
142.9
 21
47.5
 31
0.0
  0
LINE
  8
0
 62
0
 10
142.9
 20
47.5
 30
0.0
 11
142.9
 21
42.5
 31
0.0
  0
LINE
  8
0
 62
0
 10
142.9
 20
42.5
 30
0.0
 11
140.0
 21
42.5
 31
0.0
  0
LINE
  8
0
 62
0
 10
140.0
 20
42.5
 30
0.0
 11
140.0
 21
37.5
 31
0.0
  0
LINE
  8
0
 62
0
 10
140.0
 20
37.5
 30
0.0
 11
142.9
 21
37.5
 31
0.0
  0
LINE
  8
0
 62
0
 10
142.9
 20
37.5
 30
0.0
 11
142.9
 21
32.5
 31
0.0
  0
LINE
  8
0
 62
0
 10
142.9
 20
32.5
 30
0.0
 11
140.0
 21
32.5
 31
0.0
  0
LINE
  8
0
 62
0
 10
140.0
 20
32.5
 30
0.0
 11
140.0
 21
27.5
 31
0.0
  0
LINE
  8
0
 62
0
 10
140.0
 20
27.5
 30
0.0
 11
142.9
 21
27.5
 31
0.0
  0
LINE
  8
0
 62
0
 10
142.9
 20
27.5
 30
0.0
 11
142.9
 21
22.5
 31
0.0
  0
LINE
  8
0
 62
0
 10
142.9
 20
22.5
 30
0.0
 11
140.0
 21
22.5
 31
0.0
  0
LINE
  8
0
 62
0
 10
140.0
 20
22.5
 30
0.0
 11
140.0
 21
17.5
 31
0.0
  0
LINE
  8
0
 62
0
 10
140.0
 20
17.5
 30
0.0
 11
142.9
 21
17.5
 31
0.0
  0
LINE
  8
0
 62
0
 10
142.9
 20
17.5
 30
0.0
 11
142.9
 21
12.5
 31
0.0
  0
LINE
  8
0
 62
0
 10
142.9
 20
12.5
 30
0.0
 11
140.0
 21
12.5
 31
0.0
  0
LINE
  8
0
 62
0
 10
140.0
 20
12.5
 30
0.0
 11
140.0
 21
7.5
 31
0.0
  0
LINE
  8
0
 62
0
 10
140.0
 20
7.5
 30
0.0
 11
142.9
 21
7.5
 31
0.0
  0
LINE
  8
0
 62
0
 10
142.9
 20
7.5
 30
0.0
 11
142.9
 21
2.5
 31
0.0
  0
LINE
  8
0
 62
0
 10
142.9
 20
2.5
 30
0.0
 11
140.0
 21
2.5
 31
0.0
  0
LINE
  8
0
 62
0
 10
140.0
 20
2.5
 30
0.0
 11
140.0
 21
-2.5
 31
0.0
  0
LINE
  8
0
 62
0
 10
140.0
 20
-2.5
 30
0.0
 11
142.9
 21
-2.5
 31
0.0
  0
LINE
  8
0
 62
0
 10
142.9
 20
-2.5
 30
0.0
 11
142.9
 21
-7.5
 31
0.0
  0
LINE
  8
0
 62
0
 10
142.9
 20
-7.5
 30
0.0
 11
140.0
 21
-7.5
 31
0.0
  0
LINE
  8
0
 62
0
 10
140.0
 20
-7.5
 30
0.0
 11
140.0
 21
-12.5
 31
0.0
  0
LINE
  8
0
 62
0
 10
140.0
 20
-12.5
 30
0.0
 11
142.9
 21
-12.5
 31
0.0
  0
LINE
  8
0
 62
0
 10
142.9
 20
-12.5
 30
0.0
 11
142.9
 21
-17.5
 31
0.0
  0
LINE
  8
0
 62
0
 10
142.9
 20
-17.5
 30
0.0
 11
140.0
 21
-17.5
 31
0.0
  0
LINE
  8
0
 62
0
 10
140.0
 20
-17.5
 30
0.0
 11
140.0
 21
-22.5
 31
0.0
  0
LINE
  8
0
 62
0
 10
140.0
 20
-22.5
 30
0.0
 11
142.9
 21
-22.5
 31
0.0
  0
LINE
  8
0
 62
0
 10
142.9
 20
-22.5
 30
0.0
 11
142.9
 21
-27.5
 31
0.0
  0
LINE
  8
0
 62
0
 10
142.9
 20
-27.5
 30
0.0
 11
140.0
 21
-27.5
 31
0.0
  0
LINE
  8
0
 62
0
 10
140.0
 20
-27.5
 30
0.0
 11
140.0
 21
-32.5
 31
0.0
  0
LINE
  8
0
 62
0
 10
140.0
 20
-32.5
 30
0.0
 11
142.9
 21
-32.5
 31
0.0
  0
LINE
  8
0
 62
0
 10
142.9
 20
-32.5
 30
0.0
 11
142.9
 21
-37.5
 31
0.0
  0
LINE
  8
0
 62
0
 10
142.9
 20
-37.5
 30
0.0
 11
140.0
 21
-37.5
 31
0.0
  0
LINE
  8
0
 62
0
 10
140.0
 20
-37.5
 30
0.0
 11
140.0
 21
-42.5
 31
0.0
  0
LINE
  8
0
 62
0
 10
140.0
 20
-42.5
 30
0.0
 11
142.9
 21
-42.5
 31
0.0
  0
LINE
  8
0
 62
0
 10
142.9
 20
-42.5
 30
0.0
 11
142.9
 21
-47.5
 31
0.0
  0
LINE
  8
0
 62
0
 10
142.9
 20
-47.5
 30
0.0
 11
140.0
 21
-47.5
 31
0.0
  0
LINE
  8
0
 62
0
 10
140.0
 20
-47.5
 30
0.0
 11
140.0
 21
-52.5
 31
0.0
  0
LINE
  8
0
 62
0
 10
140.0
 20
-52.5
 30
0.0
 11
142.9
 21
-52.5
 31
0.0
  0
LINE
  8
0
 62
0
 10
142.9
 20
-52.5
 30
0.0
 11
142.9
 21
-57.5
 31
0.0
  0
LINE
  8
0
 62
0
 10
142.9
 20
-57.5
 30
0.0
 11
140.0
 21
-57.5
 31
0.0
  0
LINE
  8
0
 62
0
 10
140.0
 20
-57.5
 30
0.0
 11
140.0
 21
-62.5
 31
0.0
  0
LINE
  8
0
 62
0
 10
140.0
 20
-62.5
 30
0.0
 11
-140.0
 21
-62.5
 31
0.0
  0
LINE
  8
0
 62
0
 10
-140.0
 20
-57.5
 30
0.0
 11
-140.0
 21
-62.5
 31
0.0
  0
LINE
  8
0
 62
0
 10
-142.9
 20
-57.5
 30
0.0
 11
-140.0
 21
-57.5
 31
0.0
  0
LINE
  8
0
 62
0
 10
-142.9
 20
-52.5
 30
0.0
 11
-142.9
 21
-57.5
 31
0.0
  0
LINE
  8
0
 62
0
 10
-140.0
 20
-52.5
 30
0.0
 11
-142.9
 21
-52.5
 31
0.0
  0
LINE
  8
0
 62
0
 10
-140.0
 20
-47.5
 30
0.0
 11
-140.0
 21
-52.5
 31
0.0
  0
LINE
  8
0
 62
0
 10
-142.9
 20
-47.5
 30
0.0
 11
-140.0
 21
-47.5
 31
0.0
  0
LINE
  8
0
 62
0
 10
-142.9
 20
-42.5
 30
0.0
 11
-142.9
 21
-47.5
 31
0.0
  0
LINE
  8
0
 62
0
 10
-140.0
 20
-42.5
 30
0.0
 11
-142.9
 21
-42.5
 31
0.0
  0
LINE
  8
0
 62
0
 10
-140.0
 20
-37.5
 30
0.0
 11
-140.0
 21
-42.5
 31
0.0
  0
LINE
  8
0
 62
0
 10
-142.9
 20
-37.5
 30
0.0
 11
-140.0
 21
-37.5
 31
0.0
  0
LINE
  8
0
 62
0
 10
-142.9
 20
-32.5
 30
0.0
 11
-142.9
 21
-37.5
 31
0.0
  0
LINE
  8
0
 62
0
 10
-140.0
 20
-32.5
 30
0.0
 11
-142.9
 21
-32.5
 31
0.0
  0
LINE
  8
0
 62
0
 10
-140.0
 20
-27.5
 30
0.0
 11
-140.0
 21
-32.5
 31
0.0
  0
LINE
  8
0
 62
0
 10
-142.9
 20
-27.5
 30
0.0
 11
-140.0
 21
-27.5
 31
0.0
  0
LINE
  8
0
 62
0
 10
-142.9
 20
-22.5
 30
0.0
 11
-142.9
 21
-27.5
 31
0.0
  0
LINE
  8
0
 62
0
 10
-140.0
 20
-22.5
 30
0.0
 11
-142.9
 21
-22.5
 31
0.0
  0
LINE
  8
0
 62
0
 10
-140.0
 20
-17.5
 30
0.0
 11
-140.0
 21
-22.5
 31
0.0
  0
LINE
  8
0
 62
0
 10
-142.9
 20
-17.5
 30
0.0
 11
-140.0
 21
-17.5
 31
0.0
  0
LINE
  8
0
 62
0
 10
-142.9
 20
-12.5
 30
0.0
 11
-142.9
 21
-17.5
 31
0.0
  0
LINE
  8
0
 62
0
 10
-140.0
 20
-12.5
 30
0.0
 11
-142.9
 21
-12.5
 31
0.0
  0
LINE
  8
0
 62
0
 10
-140.0
 20
-7.5
 30
0.0
 11
-140.0
 21
-12.5
 31
0.0
  0
LINE
  8
0
 62
0
 10
-142.9
 20
-7.5
 30
0.0
 11
-140.0
 21
-7.5
 31
0.0
  0
LINE
  8
0
 62
0
 10
-142.9
 20
-2.5
 30
0.0
 11
-142.9
 21
-7.5
 31
0.0
  0
LINE
  8
0
 62
0
 10
-140.0
 20
-2.5
 30
0.0
 11
-142.9
 21
-2.5
 31
0.0
  0
LINE
  8
0
 62
0
 10
-140.0
 20
2.5
 30
0.0
 11
-140.0
 21
-2.5
 31
0.0
  0
LINE
  8
0
 62
0
 10
-142.9
 20
2.5
 30
0.0
 11
-140.0
 21
2.5
 31
0.0
  0
LINE
  8
0
 62
0
 10
-142.9
 20
7.5
 30
0.0
 11
-142.9
 21
2.5
 31
0.0
  0
LINE
  8
0
 62
0
 10
-140.0
 20
7.5
 30
0.0
 11
-142.9
 21
7.5
 31
0.0
  0
LINE
  8
0
 62
0
 10
-140.0
 20
12.5
 30
0.0
 11
-140.0
 21
7.5
 31
0.0
  0
LINE
  8
0
 62
0
 10
-142.9
 20
12.5
 30
0.0
 11
-140.0
 21
12.5
 31
0.0
  0
LINE
  8
0
 62
0
 10
-142.9
 20
17.5
 30
0.0
 11
-142.9
 21
12.5
 31
0.0
  0
LINE
  8
0
 62
0
 10
-140.0
 20
17.5
 30
0.0
 11
-142.9
 21
17.5
 31
0.0
  0
LINE
  8
0
 62
0
 10
-140.0
 20
22.5
 30
0.0
 11
-140.0
 21
17.5
 31
0.0
  0
LINE
  8
0
 62
0
 10
-142.9
 20
22.5
 30
0.0
 11
-140.0
 21
22.5
 31
0.0
  0
LINE
  8
0
 62
0
 10
-142.9
 20
27.5
 30
0.0
 11
-142.9
 21
22.5
 31
0.0
  0
LINE
  8
0
 62
0
 10
-140.0
 20
27.5
 30
0.0
 11
-142.9
 21
27.5
 31
0.0
  0
LINE
  8
0
 62
0
 10
-140.0
 20
32.5
 30
0.0
 11
-140.0
 21
27.5
 31
0.0
  0
LINE
  8
0
 62
0
 10
-142.9
 20
32.5
 30
0.0
 11
-140.0
 21
32.5
 31
0.0
  0
LINE
  8
0
 62
0
 10
-142.9
 20
37.5
 30
0.0
 11
-142.9
 21
32.5
 31
0.0
  0
LINE
  8
0
 62
0
 10
-140.0
 20
37.5
 30
0.0
 11
-142.9
 21
37.5
 31
0.0
  0
LINE
  8
0
 62
0
 10
-140.0
 20
42.5
 30
0.0
 11
-140.0
 21
37.5
 31
0.0
  0
LINE
  8
0
 62
0
 10
-142.9
 20
42.5
 30
0.0
 11
-140.0
 21
42.5
 31
0.0
  0
LINE
  8
0
 62
0
 10
-142.9
 20
47.5
 30
0.0
 11
-142.9
 21
42.5
 31
0.0
  0
LINE
  8
0
 62
0
 10
-140.0
 20
47.5
 30
0.0
 11
-142.9
 21
47.5
 31
0.0
  0
LINE
  8
0
 62
0
 10
-140.0
 20
52.5
 30
0.0
 11
-140.0
 21
47.5
 31
0.0
  0
LINE
  8
0
 62
0
 10
-142.9
 20
52.5
 30
0.0
 11
-140.0
 21
52.5
 31
0.0
  0
LINE
  8
0
 62
0
 10
-142.9
 20
57.5
 30
0.0
 11
-142.9
 21
52.5
 31
0.0
  0
LINE
  8
0
 62
0
 10
-140.0
 20
57.5
 30
0.0
 11
-142.9
 21
57.5
 31
0.0
  0
ENDBLK
  0
ENDSEC
  0
SECTION
  2
ENTITIES
  0
INSERT
  2
PAD
  8
0
 62
0
 10
0.0
 20
0.0
 30
0.0
  0
ENDSEC
  0
EOF
