(export (version D)
  (design
    (source "/home/rwema/gitlab/HandPump_locker/designs/PCB/Main circuit/Main circuit.sch")
    (date "Mbe 03 Nze 2018 12:10:00 CAT")
    (tool "Eeschema 5.0.0-fee4fd1~66~ubuntu16.04.1")
    (sheet (number 1) (name /) (tstamps /)
      (title_block
        (title "Main circuit")
        (company)
        (rev 2.0)
        (date 2018-08-19)
        (source "Main circuit.sch")
        (comment (number 1) (value "V 1.0: This was the circuit for LEDs and LCD only"))
        (comment (number 2) (value "V2.0: Changed this circuit to Main circuit and including other componets"))
        (comment (number 3) (value ""))
        (comment (number 4) (value "")))))
  (components
    (comp (ref LED1)
      (value LEDRGBOLD)
      (footprint fab:fab-P-LCC-4-3)
      (libsource (lib fab) (part LEDRGBOLD) (description ""))
      (sheetpath (names /) (tstamps /))
      (tstamp 5B78CE74))
    (comp (ref LED2)
      (value LEDRGBOLD)
      (footprint fab:fab-P-LCC-4-3)
      (libsource (lib fab) (part LEDRGBOLD) (description ""))
      (sheetpath (names /) (tstamps /))
      (tstamp 5B78CEF7))
    (comp (ref LED3)
      (value LEDRGBOLD)
      (footprint fab:fab-P-LCC-4-3)
      (libsource (lib fab) (part LEDRGBOLD) (description ""))
      (sheetpath (names /) (tstamps /))
      (tstamp 5B78CFA1))
    (comp (ref R3)
      (value 1K)
      (footprint Resistor_SMD:R_1206_3216Metric_Pad1.42x1.75mm_HandSolder)
      (datasheet ~)
      (libsource (lib Device) (part R) (description Resistor))
      (sheetpath (names /) (tstamps /))
      (tstamp 5B78E0DC))
    (comp (ref R2)
      (value 1K)
      (footprint Resistor_SMD:R_1206_3216Metric_Pad1.42x1.75mm_HandSolder)
      (datasheet ~)
      (libsource (lib Device) (part R) (description Resistor))
      (sheetpath (names /) (tstamps /))
      (tstamp 5B78E43B))
    (comp (ref R1)
      (value 499R)
      (footprint Resistor_SMD:R_1206_3216Metric_Pad1.42x1.75mm_HandSolder)
      (datasheet ~)
      (libsource (lib Device) (part R) (description Resistor))
      (sheetpath (names /) (tstamps /))
      (tstamp 5B78E4BD))
    (comp (ref R6)
      (value 1K)
      (footprint Resistor_SMD:R_1206_3216Metric_Pad1.42x1.75mm_HandSolder)
      (datasheet ~)
      (libsource (lib Device) (part R) (description Resistor))
      (sheetpath (names /) (tstamps /))
      (tstamp 5B78EAFA))
    (comp (ref R5)
      (value 1K)
      (footprint Resistor_SMD:R_1206_3216Metric_Pad1.42x1.75mm_HandSolder)
      (datasheet ~)
      (libsource (lib Device) (part R) (description Resistor))
      (sheetpath (names /) (tstamps /))
      (tstamp 5B78EB01))
    (comp (ref R4)
      (value 499R)
      (footprint Resistor_SMD:R_1206_3216Metric_Pad1.42x1.75mm_HandSolder)
      (datasheet ~)
      (libsource (lib Device) (part R) (description Resistor))
      (sheetpath (names /) (tstamps /))
      (tstamp 5B78EB08))
    (comp (ref R9)
      (value 1K)
      (footprint Resistor_SMD:R_1206_3216Metric_Pad1.42x1.75mm_HandSolder)
      (datasheet ~)
      (libsource (lib Device) (part R) (description Resistor))
      (sheetpath (names /) (tstamps /))
      (tstamp 5B78EC5F))
    (comp (ref R8)
      (value 1K)
      (footprint Resistor_SMD:R_1206_3216Metric_Pad1.42x1.75mm_HandSolder)
      (datasheet ~)
      (libsource (lib Device) (part R) (description Resistor))
      (sheetpath (names /) (tstamps /))
      (tstamp 5B78EC66))
    (comp (ref R7)
      (value 499R)
      (footprint Resistor_SMD:R_1206_3216Metric_Pad1.42x1.75mm_HandSolder)
      (datasheet ~)
      (libsource (lib Device) (part R) (description Resistor))
      (sheetpath (names /) (tstamps /))
      (tstamp 5B78EC6D))
    (comp (ref R12)
      (value 1K)
      (footprint Resistor_SMD:R_1206_3216Metric_Pad1.42x1.75mm_HandSolder)
      (datasheet ~)
      (libsource (lib Device) (part R) (description Resistor))
      (sheetpath (names /) (tstamps /))
      (tstamp 5B78EE7B))
    (comp (ref R11)
      (value 1K)
      (footprint Resistor_SMD:R_1206_3216Metric_Pad1.42x1.75mm_HandSolder)
      (datasheet ~)
      (libsource (lib Device) (part R) (description Resistor))
      (sheetpath (names /) (tstamps /))
      (tstamp 5B78EE82))
    (comp (ref R10)
      (value 499R)
      (footprint Resistor_SMD:R_1206_3216Metric_Pad1.42x1.75mm_HandSolder)
      (datasheet ~)
      (libsource (lib Device) (part R) (description Resistor))
      (sheetpath (names /) (tstamps /))
      (tstamp 5B78EE89))
    (comp (ref J2)
      (value "Keypad conn")
      (footprint Connector_PinHeader_2.54mm:PinHeader_1x07_P2.54mm_Horizontal)
      (datasheet ~)
      (libsource (lib Connector) (part Conn_01x07_Male) (description "Generic connector, single row, 01x07, script generated (kicad-library-utils/schlib/autogen/connector/)"))
      (sheetpath (names /) (tstamps /))
      (tstamp 5B79BC99))
    (comp (ref U1)
      (value LCD-I2C-CONVERTER)
      (footprint LCD-I2C-CONVERTER:LCD-I2C-CONVERTER)
      (libsource (lib LCD-I2C-CONVERTER) (part LCD-I2C-CONVERTER) (description ""))
      (sheetpath (names /) (tstamps /))
      (tstamp 5B79C6DF))
    (comp (ref IC1)
      (value ATMEGA88-THIN)
      (footprint fab:fab-TQFP32-08THIN)
      (libsource (lib fab) (part ATMEGA88-THIN) (description ""))
      (sheetpath (names /) (tstamps /))
      (tstamp 5B7F1CBC))
    (comp (ref LED4)
      (value LEDRGBOLD)
      (footprint fab:fab-P-LCC-4-3)
      (libsource (lib fab) (part LEDRGBOLD) (description ""))
      (sheetpath (names /) (tstamps /))
      (tstamp 5B78D066))
    (comp (ref J3)
      (value "Power conn")
      (footprint Connector_PinHeader_2.54mm:PinHeader_1x05_P2.54mm_Vertical)
      (datasheet ~)
      (libsource (lib Connector) (part Conn_01x05_Male) (description "Generic connector, single row, 01x05, script generated (kicad-library-utils/schlib/autogen/connector/)"))
      (sheetpath (names /) (tstamps /))
      (tstamp 5B7F9636))
    (comp (ref J4)
      (value "Reset conn")
      (footprint Connector_PinHeader_2.54mm:PinHeader_1x01_P2.54mm_Vertical)
      (datasheet ~)
      (libsource (lib Connector) (part Conn_01x01_Male) (description "Generic connector, single row, 01x01, script generated (kicad-library-utils/schlib/autogen/connector/)"))
      (sheetpath (names /) (tstamps /))
      (tstamp 5B7FB2DA))
    (comp (ref J1)
      (value "SPI conn")
      (footprint Connector_PinHeader_2.54mm:PinHeader_2x03_P2.54mm_Vertical)
      (datasheet ~)
      (libsource (lib Connector_Generic) (part Conn_02x03_Odd_Even) (description "Generic connector, double row, 02x03, odd/even pin numbering scheme (row 1 odd numbers, row 2 even numbers), script generated (kicad-library-utils/schlib/autogen/connector/)"))
      (sheetpath (names /) (tstamps /))
      (tstamp 5B7FC355))
    (comp (ref J5)
      (value "GSM conn")
      (footprint Connector_PinHeader_2.54mm:PinHeader_1x06_P2.54mm_Vertical)
      (datasheet ~)
      (libsource (lib Connector) (part Conn_01x06_Male) (description "Generic connector, single row, 01x06, script generated (kicad-library-utils/schlib/autogen/connector/)"))
      (sheetpath (names /) (tstamps /))
      (tstamp 5B805277))
    (comp (ref J6)
      (value "I2C conn")
      (footprint Connector_PinHeader_2.54mm:PinHeader_2x02_P2.54mm_Vertical)
      (datasheet ~)
      (libsource (lib Connector_Generic) (part Conn_02x02_Odd_Even) (description "Generic connector, double row, 02x02, odd/even pin numbering scheme (row 1 odd numbers, row 2 even numbers), script generated (kicad-library-utils/schlib/autogen/connector/)"))
      (sheetpath (names /) (tstamps /))
      (tstamp 5B80A392))
    (comp (ref J7)
      (value "Back Button conn")
      (footprint Connector_PinHeader_2.54mm:PinHeader_1x02_P2.54mm_Vertical)
      (datasheet ~)
      (libsource (lib Connector) (part Conn_01x02_Male) (description "Generic connector, single row, 01x02, script generated (kicad-library-utils/schlib/autogen/connector/)"))
      (sheetpath (names /) (tstamps /))
      (tstamp 5B80D44C))
    (comp (ref J8)
      (value "Front Button conn")
      (footprint Connector_PinHeader_2.54mm:PinHeader_1x02_P2.54mm_Vertical)
      (datasheet ~)
      (libsource (lib Connector) (part Conn_01x02_Male) (description "Generic connector, single row, 01x02, script generated (kicad-library-utils/schlib/autogen/connector/)"))
      (sheetpath (names /) (tstamps /))
      (tstamp 5B80E22A))
    (comp (ref R13)
      (value 1K)
      (footprint Resistor_SMD:R_1206_3216Metric_Pad1.42x1.75mm_HandSolder)
      (datasheet ~)
      (libsource (lib Device) (part R) (description Resistor))
      (sheetpath (names /) (tstamps /))
      (tstamp 5B80F3E9))
    (comp (ref R14)
      (value 1K)
      (footprint Resistor_SMD:R_1206_3216Metric_Pad1.42x1.75mm_HandSolder)
      (datasheet ~)
      (libsource (lib Device) (part R) (description Resistor))
      (sheetpath (names /) (tstamps /))
      (tstamp 5B80F8D0))
    (comp (ref R15)
      (value 0R)
      (footprint Resistor_SMD:R_1206_3216Metric_Pad1.42x1.75mm_HandSolder)
      (datasheet ~)
      (libsource (lib Device) (part R) (description Resistor))
      (sheetpath (names /) (tstamps /))
      (tstamp 5B813276))
    (comp (ref R16)
      (value 0R)
      (footprint Resistor_SMD:R_1206_3216Metric_Pad1.42x1.75mm_HandSolder)
      (datasheet ~)
      (libsource (lib Device) (part R) (description Resistor))
      (sheetpath (names /) (tstamps /))
      (tstamp 5B81C79B))
    (comp (ref R18)
      (value 0R)
      (footprint Resistor_SMD:R_1206_3216Metric_Pad1.42x1.75mm_HandSolder)
      (datasheet ~)
      (libsource (lib Device) (part R) (description Resistor))
      (sheetpath (names /) (tstamps /))
      (tstamp 5B81D255))
    (comp (ref R20)
      (value 0R)
      (footprint Resistor_SMD:R_1206_3216Metric_Pad1.42x1.75mm_HandSolder)
      (datasheet ~)
      (libsource (lib Device) (part R) (description Resistor))
      (sheetpath (names /) (tstamps /))
      (tstamp 5B81D381))
    (comp (ref R21)
      (value 0R)
      (footprint Resistor_SMD:R_1206_3216Metric_Pad1.42x1.75mm_HandSolder)
      (datasheet ~)
      (libsource (lib Device) (part R) (description Resistor))
      (sheetpath (names /) (tstamps /))
      (tstamp 5B81D425))
    (comp (ref R17)
      (value 0R)
      (footprint Resistor_SMD:R_1206_3216Metric_Pad1.42x1.75mm_HandSolder)
      (datasheet ~)
      (libsource (lib Device) (part R) (description Resistor))
      (sheetpath (names /) (tstamps /))
      (tstamp 5B81DE2E))
    (comp (ref R19)
      (value 0R)
      (footprint Resistor_SMD:R_1206_3216Metric_Pad1.42x1.75mm_HandSolder)
      (datasheet ~)
      (libsource (lib Device) (part R) (description Resistor))
      (sheetpath (names /) (tstamps /))
      (tstamp 5B81DE35))
    (comp (ref J12)
      (value "Key2 jmp")
      (footprint Connector_PinHeader_2.54mm:PinHeader_1x01_P2.54mm_Vertical)
      (datasheet ~)
      (libsource (lib Connector) (part Conn_01x01_Male) (description "Generic connector, single row, 01x01, script generated (kicad-library-utils/schlib/autogen/connector/)"))
      (sheetpath (names /) (tstamps /))
      (tstamp 5B8258CD))
    (comp (ref J11)
      (value "Key1 jmp")
      (footprint Connector_PinHeader_2.54mm:PinHeader_1x01_P2.54mm_Vertical)
      (datasheet ~)
      (libsource (lib Connector) (part Conn_01x01_Male) (description "Generic connector, single row, 01x01, script generated (kicad-library-utils/schlib/autogen/connector/)"))
      (sheetpath (names /) (tstamps /))
      (tstamp 5B825A67))
    (comp (ref J10)
      (value "Key2 conn")
      (footprint Connector_PinHeader_2.54mm:PinHeader_1x01_P2.54mm_Vertical)
      (datasheet ~)
      (libsource (lib Connector) (part Conn_01x01_Male) (description "Generic connector, single row, 01x01, script generated (kicad-library-utils/schlib/autogen/connector/)"))
      (sheetpath (names /) (tstamps /))
      (tstamp 5B82832A))
    (comp (ref J9)
      (value "Key1 conn")
      (footprint Connector_PinHeader_2.54mm:PinHeader_1x01_P2.54mm_Vertical)
      (datasheet ~)
      (libsource (lib Connector) (part Conn_01x01_Male) (description "Generic connector, single row, 01x01, script generated (kicad-library-utils/schlib/autogen/connector/)"))
      (sheetpath (names /) (tstamps /))
      (tstamp 5B828331))
    (comp (ref JP1)
      (value Jumper)
      (footprint Resistor_SMD:R_0805_2012Metric)
      (datasheet ~)
      (libsource (lib Device) (part Jumper) (description "Jumper, generic, normally closed"))
      (sheetpath (names /) (tstamps /))
      (tstamp 5B82E02F))
    (comp (ref J13)
      (value "Stepper driver conn")
      (footprint Connector_PinHeader_2.54mm:PinHeader_1x02_P2.54mm_Vertical)
      (datasheet ~)
      (libsource (lib Connector) (part Conn_01x02_Male) (description "Generic connector, single row, 01x02, script generated (kicad-library-utils/schlib/autogen/connector/)"))
      (sheetpath (names /) (tstamps /))
      (tstamp 5B831B79))
    (comp (ref J14)
      (value "GND conn")
      (footprint Connector_PinHeader_2.54mm:PinHeader_1x03_P2.54mm_Vertical)
      (datasheet ~)
      (libsource (lib Connector) (part Conn_01x03_Male) (description "Generic connector, single row, 01x03, script generated (kicad-library-utils/schlib/autogen/connector/)"))
      (sheetpath (names /) (tstamps /))
      (tstamp 5B835B63))
    (comp (ref J15)
      (value Conn_01x01_Male)
      (footprint Connector_PinHeader_2.54mm:PinHeader_1x01_P2.54mm_Vertical)
      (datasheet ~)
      (libsource (lib Connector) (part Conn_01x01_Male) (description "Generic connector, single row, 01x01, script generated (kicad-library-utils/schlib/autogen/connector/)"))
      (sheetpath (names /) (tstamps /))
      (tstamp 5B812F24))
    (comp (ref R22)
      (value 0R)
      (footprint Resistor_SMD:R_1206_3216Metric_Pad1.42x1.75mm_HandSolder)
      (datasheet ~)
      (libsource (lib Device) (part R) (description Resistor))
      (sheetpath (names /) (tstamps /))
      (tstamp 5B81D4F5))
    (comp (ref J16)
      (value "Enable conn")
      (footprint Connector_PinHeader_2.54mm:PinHeader_1x01_P2.54mm_Vertical)
      (datasheet ~)
      (libsource (lib Connector) (part Conn_01x01_Male) (description "Generic connector, single row, 01x01, script generated (kicad-library-utils/schlib/autogen/connector/)"))
      (sheetpath (names /) (tstamps /))
      (tstamp 5B8D16E2)))
  (libparts
    (libpart (lib Connector) (part Conn_01x01_Male)
      (description "Generic connector, single row, 01x01, script generated (kicad-library-utils/schlib/autogen/connector/)")
      (docs ~)
      (footprints
        (fp Connector*:*))
      (fields
        (field (name Reference) J)
        (field (name Value) Conn_01x01_Male))
      (pins
        (pin (num 1) (name Pin_1) (type passive))))
    (libpart (lib Connector) (part Conn_01x02_Male)
      (description "Generic connector, single row, 01x02, script generated (kicad-library-utils/schlib/autogen/connector/)")
      (docs ~)
      (footprints
        (fp Connector*:*_1x??_*))
      (fields
        (field (name Reference) J)
        (field (name Value) Conn_01x02_Male))
      (pins
        (pin (num 1) (name Pin_1) (type passive))
        (pin (num 2) (name Pin_2) (type passive))))
    (libpart (lib Connector) (part Conn_01x03_Male)
      (description "Generic connector, single row, 01x03, script generated (kicad-library-utils/schlib/autogen/connector/)")
      (docs ~)
      (footprints
        (fp Connector*:*_1x??_*))
      (fields
        (field (name Reference) J)
        (field (name Value) Conn_01x03_Male))
      (pins
        (pin (num 1) (name Pin_1) (type passive))
        (pin (num 2) (name Pin_2) (type passive))
        (pin (num 3) (name Pin_3) (type passive))))
    (libpart (lib Connector) (part Conn_01x05_Male)
      (description "Generic connector, single row, 01x05, script generated (kicad-library-utils/schlib/autogen/connector/)")
      (docs ~)
      (footprints
        (fp Connector*:*_1x??_*))
      (fields
        (field (name Reference) J)
        (field (name Value) Conn_01x05_Male))
      (pins
        (pin (num 1) (name Pin_1) (type passive))
        (pin (num 2) (name Pin_2) (type passive))
        (pin (num 3) (name Pin_3) (type passive))
        (pin (num 4) (name Pin_4) (type passive))
        (pin (num 5) (name Pin_5) (type passive))))
    (libpart (lib Connector) (part Conn_01x06_Male)
      (description "Generic connector, single row, 01x06, script generated (kicad-library-utils/schlib/autogen/connector/)")
      (docs ~)
      (footprints
        (fp Connector*:*_1x??_*))
      (fields
        (field (name Reference) J)
        (field (name Value) Conn_01x06_Male))
      (pins
        (pin (num 1) (name Pin_1) (type passive))
        (pin (num 2) (name Pin_2) (type passive))
        (pin (num 3) (name Pin_3) (type passive))
        (pin (num 4) (name Pin_4) (type passive))
        (pin (num 5) (name Pin_5) (type passive))
        (pin (num 6) (name Pin_6) (type passive))))
    (libpart (lib Connector) (part Conn_01x07_Male)
      (description "Generic connector, single row, 01x07, script generated (kicad-library-utils/schlib/autogen/connector/)")
      (docs ~)
      (footprints
        (fp Connector*:*_1x??_*))
      (fields
        (field (name Reference) J)
        (field (name Value) Conn_01x07_Male))
      (pins
        (pin (num 1) (name Pin_1) (type passive))
        (pin (num 2) (name Pin_2) (type passive))
        (pin (num 3) (name Pin_3) (type passive))
        (pin (num 4) (name Pin_4) (type passive))
        (pin (num 5) (name Pin_5) (type passive))
        (pin (num 6) (name Pin_6) (type passive))
        (pin (num 7) (name Pin_7) (type passive))))
    (libpart (lib Connector_Generic) (part Conn_02x02_Odd_Even)
      (description "Generic connector, double row, 02x02, odd/even pin numbering scheme (row 1 odd numbers, row 2 even numbers), script generated (kicad-library-utils/schlib/autogen/connector/)")
      (docs ~)
      (footprints
        (fp Connector*:*_2x??_*))
      (fields
        (field (name Reference) J)
        (field (name Value) Conn_02x02_Odd_Even))
      (pins
        (pin (num 1) (name Pin_1) (type passive))
        (pin (num 2) (name Pin_2) (type passive))
        (pin (num 3) (name Pin_3) (type passive))
        (pin (num 4) (name Pin_4) (type passive))))
    (libpart (lib Connector_Generic) (part Conn_02x03_Odd_Even)
      (description "Generic connector, double row, 02x03, odd/even pin numbering scheme (row 1 odd numbers, row 2 even numbers), script generated (kicad-library-utils/schlib/autogen/connector/)")
      (docs ~)
      (footprints
        (fp Connector*:*_2x??_*))
      (fields
        (field (name Reference) J)
        (field (name Value) Conn_02x03_Odd_Even))
      (pins
        (pin (num 1) (name Pin_1) (type passive))
        (pin (num 2) (name Pin_2) (type passive))
        (pin (num 3) (name Pin_3) (type passive))
        (pin (num 4) (name Pin_4) (type passive))
        (pin (num 5) (name Pin_5) (type passive))
        (pin (num 6) (name Pin_6) (type passive))))
    (libpart (lib Device) (part Jumper)
      (description "Jumper, generic, normally closed")
      (docs ~)
      (fields
        (field (name Reference) JP)
        (field (name Value) Jumper))
      (pins
        (pin (num 1) (name 1) (type passive))
        (pin (num 2) (name 2) (type passive))))
    (libpart (lib Device) (part R)
      (description Resistor)
      (docs ~)
      (footprints
        (fp R_*))
      (fields
        (field (name Reference) R)
        (field (name Value) R))
      (pins
        (pin (num 1) (name ~) (type passive))
        (pin (num 2) (name ~) (type passive))))
    (libpart (lib LCD-I2C-CONVERTER) (part LCD-I2C-CONVERTER)
      (fields
        (field (name Reference) U)
        (field (name Value) LCD-I2C-CONVERTER)
        (field (name Footprint) LCD-I2C-CONVERTER))
      (pins
        (pin (num J1.3) (name SCL) (type BiDi))
        (pin (num J1.2) (name SDA) (type BiDi))
        (pin (num J1.1) (name VCC) (type power_in))
        (pin (num J1.4) (name GND) (type power_in))
        (pin (num J2.6) (name EN) (type BiDi))
        (pin (num J2.16) (name LED.K) (type BiDi))
        (pin (num J2.15) (name LED.A) (type BiDi))
        (pin (num J2.14) (name DB7) (type BiDi))
        (pin (num J2.13) (name DB6) (type BiDi))
        (pin (num J2.12) (name DB5) (type BiDi))
        (pin (num J2.11) (name DB4) (type BiDi))
        (pin (num J2.10) (name DB3) (type BiDi))
        (pin (num J2.9) (name DB2) (type BiDi))
        (pin (num J2.8) (name DB1) (type BiDi))
        (pin (num J2.7) (name DB0) (type BiDi))
        (pin (num J2.5) (name R/W) (type BiDi))
        (pin (num J2.4) (name RS) (type BiDi))
        (pin (num J2.3) (name VEE) (type BiDi))
        (pin (num J2.2) (name VDD) (type BiDi))
        (pin (num J2.1) (name VSS) (type BiDi))))
    (libpart (lib fab) (part ATMEGA88-THIN)
      (footprints
        (fp *TQFP32-08THIN*))
      (fields
        (field (name Reference) IC)
        (field (name Value) ATMEGA88-THIN)
        (field (name Footprint) fab_TQFP32-08THIN))
      (pins
        (pin (num 1) (name "PD3(INT1)") (type BiDi))
        (pin (num 2) (name "PD4(XCK/T0)") (type BiDi))
        (pin (num 3) (name GND) (type power_in))
        (pin (num 4) (name VCC) (type power_in))
        (pin (num 5) (name GND) (type power_in))
        (pin (num 6) (name VCC) (type power_in))
        (pin (num 7) (name "PB6(XTAL1/TOSC1)") (type BiDi))
        (pin (num 8) (name "PB7(XTAL2/TOSC2)") (type BiDi))
        (pin (num 9) (name "PD5(T1)") (type BiDi))
        (pin (num 10) (name "PD6(AIN0)") (type BiDi))
        (pin (num 11) (name "PD7(AIN1)") (type BiDi))
        (pin (num 12) (name "PB0(ICP)") (type BiDi))
        (pin (num 13) (name "PB1(OC1A)") (type BiDi))
        (pin (num 14) (name "PB2(SS/OC1B)") (type BiDi))
        (pin (num 15) (name "PB3(MOSI/OC2)") (type BiDi))
        (pin (num 16) (name "PB4(MISO)") (type BiDi))
        (pin (num 17) (name "PB5(SCK)") (type BiDi))
        (pin (num 18) (name AVCC) (type power_in))
        (pin (num 19) (name ADC6) (type BiDi))
        (pin (num 20) (name AREF) (type passive))
        (pin (num 21) (name GND) (type power_in))
        (pin (num 22) (name ADC7) (type BiDi))
        (pin (num 23) (name "PC0(ADC0)") (type BiDi))
        (pin (num 24) (name "PC1(ADC1)") (type BiDi))
        (pin (num 25) (name "PC2(ADC2)") (type BiDi))
        (pin (num 26) (name "PC3(ADC3)") (type BiDi))
        (pin (num 27) (name "PC4(ADC4/SDA)") (type BiDi))
        (pin (num 28) (name "PC5(ADC5/SCL)") (type BiDi))
        (pin (num 29) (name "PC6(/RESET)") (type BiDi))
        (pin (num 30) (name "PD0(RXD)") (type BiDi))
        (pin (num 31) (name "PD1(TXD)") (type BiDi))
        (pin (num 32) (name "PD2(INT0)") (type BiDi))))
    (libpart (lib fab) (part LEDRGBOLD)
      (footprints
        (fp *P-LCC-4-3*))
      (fields
        (field (name Reference) LED)
        (field (name Value) LEDRGBOLD)
        (field (name Footprint) fab_P-LCC-4-3))
      (pins
        (pin (num A) (name A2) (type passive))
        (pin (num B) (name CBLUE) (type passive))
        (pin (num G) (name CGREEN) (type passive))
        (pin (num R) (name CRED) (type passive)))))
  (libraries
    (library (logical Connector)
      (uri /usr/share/kicad/library/Connector.lib))
    (library (logical Connector_Generic)
      (uri /usr/share/kicad/library/Connector_Generic.lib))
    (library (logical Device)
      (uri /usr/share/kicad/library/Device.lib))
    (library (logical LCD-I2C-CONVERTER)
      (uri "/home/rwema/KiCAD/lib/kiCAD libs/LCD-I2C-CONVERTER/LCD-I2C-CONVERTER.lib"))
    (library (logical fab)
      (uri /usr/share/kicad/library/fab.lib)))
  (nets
    (net (code 1) (name +3V8)
      (node (ref J3) (pin 4))
      (node (ref J5) (pin 5)))
    (net (code 2) (name "Net-(J5-Pad4)")
      (node (ref J5) (pin 4)))
    (net (code 3) (name GND)
      (node (ref IC1) (pin 3))
      (node (ref IC1) (pin 21))
      (node (ref U1) (pin J1.4))
      (node (ref J14) (pin 2))
      (node (ref J3) (pin 3))
      (node (ref J14) (pin 3))
      (node (ref J14) (pin 1))
      (node (ref J5) (pin 1))
      (node (ref IC1) (pin 5))
      (node (ref J6) (pin 2))
      (node (ref J8) (pin 1))
      (node (ref J7) (pin 1))
      (node (ref J1) (pin 4)))
    (net (code 4) (name "Net-(J5-Pad6)")
      (node (ref J5) (pin 6)))
    (net (code 5) (name TXD)
      (node (ref J5) (pin 2))
      (node (ref IC1) (pin 30)))
    (net (code 6) (name +3V3)
      (node (ref J1) (pin 6))
      (node (ref J3) (pin 5)))
    (net (code 7) (name BTN_2)
      (node (ref IC1) (pin 8))
      (node (ref J8) (pin 2))
      (node (ref R14) (pin 1)))
    (net (code 8) (name "Net-(IC1-Pad22)")
      (node (ref IC1) (pin 22)))
    (net (code 9) (name SCL)
      (node (ref J6) (pin 4))
      (node (ref R19) (pin 2))
      (node (ref U1) (pin J1.1)))
    (net (code 10) (name SDA)
      (node (ref R22) (pin 2))
      (node (ref J6) (pin 3))
      (node (ref U1) (pin J1.2)))
    (net (code 11) (name VCC)
      (node (ref LED2) (pin A))
      (node (ref IC1) (pin 6))
      (node (ref IC1) (pin 4))
      (node (ref IC1) (pin 20))
      (node (ref U1) (pin J1.3))
      (node (ref R13) (pin 2))
      (node (ref R14) (pin 2))
      (node (ref IC1) (pin 18))
      (node (ref LED3) (pin A))
      (node (ref J6) (pin 1))
      (node (ref LED4) (pin A))
      (node (ref LED1) (pin A))
      (node (ref J3) (pin 2))
      (node (ref JP1) (pin 2))
      (node (ref JP1) (pin 1)))
    (net (code 12) (name +12V)
      (node (ref J15) (pin 1))
      (node (ref J3) (pin 1)))
    (net (code 13) (name "Net-(LED4-PadR)")
      (node (ref R10) (pin 1))
      (node (ref LED4) (pin R)))
    (net (code 14) (name "Net-(LED4-PadG)")
      (node (ref R12) (pin 1))
      (node (ref LED4) (pin G)))
    (net (code 15) (name "Net-(LED4-PadB)")
      (node (ref LED4) (pin B))
      (node (ref R11) (pin 1)))
    (net (code 16) (name RST)
      (node (ref IC1) (pin 29))
      (node (ref J4) (pin 1)))
    (net (code 17) (name Key1)
      (node (ref J9) (pin 1))
      (node (ref J2) (pin 7)))
    (net (code 18) (name Key1_JMP)
      (node (ref J11) (pin 1))
      (node (ref IC1) (pin 12)))
    (net (code 19) (name Key2_JMP)
      (node (ref J12) (pin 1))
      (node (ref IC1) (pin 11)))
    (net (code 20) (name "Net-(R21-Pad2)")
      (node (ref R21) (pin 2))
      (node (ref R22) (pin 1)))
    (net (code 21) (name "Net-(J5-Pad3)")
      (node (ref R15) (pin 1))
      (node (ref J5) (pin 3)))
    (net (code 22) (name RXD)
      (node (ref IC1) (pin 31))
      (node (ref R15) (pin 2)))
    (net (code 23) (name "Net-(R18-Pad2)")
      (node (ref R18) (pin 2))
      (node (ref R20) (pin 1)))
    (net (code 24) (name "Net-(R17-Pad2)")
      (node (ref R19) (pin 1))
      (node (ref R17) (pin 2)))
    (net (code 25) (name "Net-(R20-Pad2)")
      (node (ref R20) (pin 2))
      (node (ref R21) (pin 1)))
    (net (code 26) (name "Net-(R16-Pad2)")
      (node (ref R16) (pin 2))
      (node (ref R18) (pin 1)))
    (net (code 27) (name Key4)
      (node (ref IC1) (pin 24))
      (node (ref J2) (pin 4)))
    (net (code 28) (name "Net-(U1-PadJ2.3)")
      (node (ref U1) (pin J2.3)))
    (net (code 29) (name "Net-(U1-PadJ2.2)")
      (node (ref U1) (pin J2.2)))
    (net (code 30) (name "Net-(U1-PadJ2.1)")
      (node (ref U1) (pin J2.1)))
    (net (code 31) (name Key2)
      (node (ref J10) (pin 1))
      (node (ref J2) (pin 6)))
    (net (code 32) (name Key3)
      (node (ref J2) (pin 5))
      (node (ref IC1) (pin 23)))
    (net (code 33) (name "Net-(U1-PadJ2.4)")
      (node (ref U1) (pin J2.4)))
    (net (code 34) (name Key5)
      (node (ref IC1) (pin 25))
      (node (ref J2) (pin 3)))
    (net (code 35) (name Key6)
      (node (ref IC1) (pin 26))
      (node (ref J2) (pin 2)))
    (net (code 36) (name Key7)
      (node (ref IC1) (pin 32))
      (node (ref J2) (pin 1)))
    (net (code 37) (name "Net-(U1-PadJ2.15)")
      (node (ref U1) (pin J2.15)))
    (net (code 38) (name "Net-(U1-PadJ2.8)")
      (node (ref U1) (pin J2.8)))
    (net (code 39) (name "Net-(U1-PadJ2.7)")
      (node (ref U1) (pin J2.7)))
    (net (code 40) (name "Net-(U1-PadJ2.6)")
      (node (ref U1) (pin J2.6)))
    (net (code 41) (name "Net-(U1-PadJ2.5)")
      (node (ref U1) (pin J2.5)))
    (net (code 42) (name "Net-(U1-PadJ2.16)")
      (node (ref U1) (pin J2.16)))
    (net (code 43) (name "Net-(U1-PadJ2.14)")
      (node (ref U1) (pin J2.14)))
    (net (code 44) (name "Net-(U1-PadJ2.13)")
      (node (ref U1) (pin J2.13)))
    (net (code 45) (name "Net-(U1-PadJ2.12)")
      (node (ref U1) (pin J2.12)))
    (net (code 46) (name "Net-(U1-PadJ2.11)")
      (node (ref U1) (pin J2.11)))
    (net (code 47) (name "Net-(U1-PadJ2.10)")
      (node (ref U1) (pin J2.10)))
    (net (code 48) (name "Net-(U1-PadJ2.9)")
      (node (ref U1) (pin J2.9)))
    (net (code 49) (name "Net-(LED3-PadR)")
      (node (ref R7) (pin 1))
      (node (ref LED3) (pin R)))
    (net (code 50) (name "Net-(LED2-PadB)")
      (node (ref R5) (pin 1))
      (node (ref LED2) (pin B)))
    (net (code 51) (name "Net-(LED2-PadG)")
      (node (ref LED2) (pin G))
      (node (ref R6) (pin 1)))
    (net (code 52) (name "Net-(LED1-PadR)")
      (node (ref R1) (pin 1))
      (node (ref LED1) (pin R)))
    (net (code 53) (name "Net-(LED1-PadB)")
      (node (ref R2) (pin 1))
      (node (ref LED1) (pin B)))
    (net (code 54) (name "Net-(LED1-PadG)")
      (node (ref R3) (pin 1))
      (node (ref LED1) (pin G)))
    (net (code 55) (name "Net-(LED2-PadR)")
      (node (ref R4) (pin 1))
      (node (ref LED2) (pin R)))
    (net (code 56) (name "Net-(LED3-PadG)")
      (node (ref LED3) (pin G))
      (node (ref R9) (pin 1)))
    (net (code 57) (name "Net-(LED3-PadB)")
      (node (ref LED3) (pin B))
      (node (ref R8) (pin 1)))
    (net (code 58) (name SCL_JMP)
      (node (ref R17) (pin 1))
      (node (ref IC1) (pin 28)))
    (net (code 59) (name BTN_1)
      (node (ref J7) (pin 2))
      (node (ref IC1) (pin 7))
      (node (ref R13) (pin 1)))
    (net (code 60) (name BLUE_LED)
      (node (ref R8) (pin 2))
      (node (ref R2) (pin 2))
      (node (ref R11) (pin 2))
      (node (ref R5) (pin 2))
      (node (ref IC1) (pin 9)))
    (net (code 61) (name SDA_JMP)
      (node (ref IC1) (pin 27))
      (node (ref R16) (pin 1)))
    (net (code 62) (name DIR)
      (node (ref IC1) (pin 2))
      (node (ref J13) (pin 1)))
    (net (code 63) (name ENABLE)
      (node (ref IC1) (pin 19))
      (node (ref J16) (pin 1)))
    (net (code 64) (name SCK)
      (node (ref J1) (pin 2))
      (node (ref IC1) (pin 17)))
    (net (code 65) (name MISO)
      (node (ref J1) (pin 1))
      (node (ref IC1) (pin 16)))
    (net (code 66) (name MOSI)
      (node (ref J1) (pin 3))
      (node (ref IC1) (pin 15)))
    (net (code 67) (name SS)
      (node (ref J1) (pin 5))
      (node (ref IC1) (pin 14)))
    (net (code 68) (name RED_LED)
      (node (ref IC1) (pin 13))
      (node (ref R10) (pin 2))
      (node (ref R1) (pin 2))
      (node (ref R4) (pin 2))
      (node (ref R7) (pin 2)))
    (net (code 69) (name GREEN_LED)
      (node (ref R9) (pin 2))
      (node (ref R6) (pin 2))
      (node (ref IC1) (pin 10))
      (node (ref R3) (pin 2))
      (node (ref R12) (pin 2)))
    (net (code 70) (name STEP)
      (node (ref J13) (pin 2))
      (node (ref IC1) (pin 1)))))