EESchema Schematic File Version 4
LIBS:Main circuit-cache
EELAYER 26 0
EELAYER END
$Descr User 9449 7087
encoding utf-8
Sheet 1 1
Title "Main circuit"
Date "2018-08-19"
Rev "2.0"
Comp ""
Comment1 "V 1.0: This was the circuit for LEDs and LCD only"
Comment2 "V2.0: Changed this circuit to Main circuit and including other componets"
Comment3 ""
Comment4 ""
$EndDescr
$Comp
L fab:LEDRGBOLD LED1
U 1 1 5B78CE74
P 1290 1230
F 0 "LED1" H 1568 1310 45  0000 L CNN
F 1 "LEDRGBOLD" H 1568 1268 45  0001 L CNN
F 2 "fab:fab-P-LCC-4-3" H 1320 1380 20  0001 C CNN
F 3 "" H 1290 1230 60  0001 C CNN
	1    1290 1230
	1    0    0    -1  
$EndComp
$Comp
L fab:LEDRGBOLD LED2
U 1 1 5B78CEF7
P 2010 1235
F 0 "LED2" H 2288 1315 45  0000 L CNN
F 1 "LEDRGBOLD" H 2288 1273 45  0001 L CNN
F 2 "fab:fab-P-LCC-4-3" H 2040 1385 20  0001 C CNN
F 3 "" H 2010 1235 60  0001 C CNN
	1    2010 1235
	1    0    0    -1  
$EndComp
$Comp
L fab:LEDRGBOLD LED3
U 1 1 5B78CFA1
P 2690 1235
F 0 "LED3" H 2968 1315 45  0000 L CNN
F 1 "LEDRGBOLD" H 2968 1273 45  0001 L CNN
F 2 "fab:fab-P-LCC-4-3" H 2720 1385 20  0001 C CNN
F 3 "" H 2690 1235 60  0001 C CNN
	1    2690 1235
	1    0    0    -1  
$EndComp
$Comp
L Device:R R3
U 1 1 5B78E0DC
P 1490 1480
F 0 "R3" H 1560 1526 50  0000 L CNN
F 1 "1K" H 1560 1435 50  0000 L CNN
F 2 "Resistor_SMD:R_1206_3216Metric_Pad1.42x1.75mm_HandSolder" V 1420 1480 50  0001 C CNN
F 3 "~" H 1490 1480 50  0001 C CNN
	1    1490 1480
	1    0    0    -1  
$EndComp
$Comp
L Device:R R2
U 1 1 5B78E43B
P 1290 1480
F 0 "R2" H 1360 1526 50  0000 L CNN
F 1 "1K" H 1360 1435 50  0000 L CNN
F 2 "Resistor_SMD:R_1206_3216Metric_Pad1.42x1.75mm_HandSolder" V 1220 1480 50  0001 C CNN
F 3 "~" H 1290 1480 50  0001 C CNN
	1    1290 1480
	1    0    0    -1  
$EndComp
$Comp
L Device:R R1
U 1 1 5B78E4BD
P 1090 1480
F 0 "R1" H 1160 1526 50  0000 L CNN
F 1 "499R" H 1160 1435 50  0000 L CNN
F 2 "Resistor_SMD:R_1206_3216Metric_Pad1.42x1.75mm_HandSolder" V 1020 1480 50  0001 C CNN
F 3 "~" H 1090 1480 50  0001 C CNN
	1    1090 1480
	1    0    0    -1  
$EndComp
$Comp
L Device:R R6
U 1 1 5B78EAFA
P 2210 1485
F 0 "R6" H 2280 1531 50  0000 L CNN
F 1 "1K" H 2280 1440 50  0000 L CNN
F 2 "Resistor_SMD:R_1206_3216Metric_Pad1.42x1.75mm_HandSolder" V 2140 1485 50  0001 C CNN
F 3 "~" H 2210 1485 50  0001 C CNN
	1    2210 1485
	1    0    0    -1  
$EndComp
$Comp
L Device:R R5
U 1 1 5B78EB01
P 2010 1485
F 0 "R5" H 2080 1531 50  0000 L CNN
F 1 "1K" H 2080 1440 50  0000 L CNN
F 2 "Resistor_SMD:R_1206_3216Metric_Pad1.42x1.75mm_HandSolder" V 1940 1485 50  0001 C CNN
F 3 "~" H 2010 1485 50  0001 C CNN
	1    2010 1485
	1    0    0    -1  
$EndComp
$Comp
L Device:R R4
U 1 1 5B78EB08
P 1810 1485
F 0 "R4" H 1880 1531 50  0000 L CNN
F 1 "499R" H 1880 1440 50  0000 L CNN
F 2 "Resistor_SMD:R_1206_3216Metric_Pad1.42x1.75mm_HandSolder" V 1740 1485 50  0001 C CNN
F 3 "~" H 1810 1485 50  0001 C CNN
	1    1810 1485
	1    0    0    -1  
$EndComp
$Comp
L Device:R R9
U 1 1 5B78EC5F
P 2890 1485
F 0 "R9" H 2960 1531 50  0000 L CNN
F 1 "1K" H 2960 1440 50  0000 L CNN
F 2 "Resistor_SMD:R_1206_3216Metric_Pad1.42x1.75mm_HandSolder" V 2820 1485 50  0001 C CNN
F 3 "~" H 2890 1485 50  0001 C CNN
	1    2890 1485
	1    0    0    -1  
$EndComp
$Comp
L Device:R R8
U 1 1 5B78EC66
P 2690 1485
F 0 "R8" H 2760 1531 50  0000 L CNN
F 1 "1K" H 2760 1440 50  0000 L CNN
F 2 "Resistor_SMD:R_1206_3216Metric_Pad1.42x1.75mm_HandSolder" V 2620 1485 50  0001 C CNN
F 3 "~" H 2690 1485 50  0001 C CNN
	1    2690 1485
	1    0    0    -1  
$EndComp
$Comp
L Device:R R7
U 1 1 5B78EC6D
P 2490 1485
F 0 "R7" H 2560 1531 50  0000 L CNN
F 1 "499R" H 2560 1440 50  0000 L CNN
F 2 "Resistor_SMD:R_1206_3216Metric_Pad1.42x1.75mm_HandSolder" V 2420 1485 50  0001 C CNN
F 3 "~" H 2490 1485 50  0001 C CNN
	1    2490 1485
	1    0    0    -1  
$EndComp
$Comp
L Device:R R12
U 1 1 5B78EE7B
P 3575 1485
F 0 "R12" H 3645 1531 50  0000 L CNN
F 1 "1K" H 3645 1440 50  0000 L CNN
F 2 "Resistor_SMD:R_1206_3216Metric_Pad1.42x1.75mm_HandSolder" V 3505 1485 50  0001 C CNN
F 3 "~" H 3575 1485 50  0001 C CNN
	1    3575 1485
	1    0    0    -1  
$EndComp
$Comp
L Device:R R11
U 1 1 5B78EE82
P 3375 1485
F 0 "R11" H 3445 1531 50  0000 L CNN
F 1 "1K" H 3445 1440 50  0000 L CNN
F 2 "Resistor_SMD:R_1206_3216Metric_Pad1.42x1.75mm_HandSolder" V 3305 1485 50  0001 C CNN
F 3 "~" H 3375 1485 50  0001 C CNN
	1    3375 1485
	1    0    0    -1  
$EndComp
$Comp
L Device:R R10
U 1 1 5B78EE89
P 3175 1485
F 0 "R10" H 3245 1531 50  0000 L CNN
F 1 "499R" H 3245 1440 50  0000 L CNN
F 2 "Resistor_SMD:R_1206_3216Metric_Pad1.42x1.75mm_HandSolder" V 3105 1485 50  0001 C CNN
F 3 "~" H 3175 1485 50  0001 C CNN
	1    3175 1485
	1    0    0    -1  
$EndComp
Text GLabel 1090 1630 3    50   Input ~ 0
RED_LED
Text GLabel 1290 1630 3    50   Input ~ 0
BLUE_LED
Text GLabel 1490 1630 3    50   Input ~ 0
GREEN_LED
Text GLabel 1810 1635 3    50   Input ~ 0
RED_LED
Text GLabel 2010 1635 3    50   Input ~ 0
BLUE_LED
Text GLabel 2210 1635 3    50   Input ~ 0
GREEN_LED
Text GLabel 2490 1635 3    50   Input ~ 0
RED_LED
Text GLabel 2690 1635 3    50   Input ~ 0
BLUE_LED
Text GLabel 2890 1635 3    50   Input ~ 0
GREEN_LED
Text GLabel 3175 1635 3    50   Input ~ 0
RED_LED
Text GLabel 3375 1635 3    50   Input ~ 0
BLUE_LED
Text GLabel 3575 1635 3    50   Input ~ 0
GREEN_LED
Text GLabel 6400 2930 2    50   Input ~ 0
RED_LED
Text GLabel 6400 2430 2    50   Input ~ 0
BLUE_LED
Text GLabel 6400 2530 2    50   Input ~ 0
GREEN_LED
$Comp
L Connector:Conn_01x07_Male J2
U 1 1 5B79BC99
P 1325 4075
F 0 "J2" V 1160 4051 50  0000 C CNN
F 1 "Keypad conn" V 1251 4051 50  0000 C CNN
F 2 "Connector_PinHeader_2.54mm:PinHeader_1x07_P2.54mm_Horizontal" H 1325 4075 50  0001 C CNN
F 3 "~" H 1325 4075 50  0001 C CNN
	1    1325 4075
	0    1    1    0   
$EndComp
$Comp
L LCD-I2C-CONVERTER:LCD-I2C-CONVERTER U1
U 1 1 5B79C6DF
P 2035 2935
F 0 "U1" H 1880 2468 50  0000 C CNN
F 1 "LCD-I2C-CONVERTER" H 1880 2559 50  0000 C CNN
F 2 "LCD-I2C-CONVERTER:LCD-I2C-CONVERTER" H 2035 2935 50  0001 L BNN
F 3 "" H 2035 2935 50  0001 C CNN
	1    2035 2935
	-1   0    0    1   
$EndComp
NoConn ~ 1335 3535
NoConn ~ 1435 3535
NoConn ~ 1535 3535
NoConn ~ 1635 3535
NoConn ~ 1735 3535
NoConn ~ 1835 3535
NoConn ~ 1935 3535
NoConn ~ 2035 3535
NoConn ~ 2135 3535
NoConn ~ 2235 3535
NoConn ~ 2335 3535
NoConn ~ 2435 3535
NoConn ~ 2535 3535
NoConn ~ 2635 3535
NoConn ~ 2735 3535
NoConn ~ 2835 3535
$Comp
L power:VCC #PWR0101
U 1 1 5B79C25E
P 3435 3035
F 0 "#PWR0101" H 3435 2885 50  0001 C CNN
F 1 "VCC" H 3452 3208 50  0000 C CNN
F 2 "" H 3435 3035 50  0001 C CNN
F 3 "" H 3435 3035 50  0001 C CNN
	1    3435 3035
	0    1    1    0   
$EndComp
$Comp
L power:GND #PWR0102
U 1 1 5B79C38E
P 3435 3135
F 0 "#PWR0102" H 3435 2885 50  0001 C CNN
F 1 "GND" H 3440 2962 50  0000 C CNN
F 2 "" H 3435 3135 50  0001 C CNN
F 3 "" H 3435 3135 50  0001 C CNN
	1    3435 3135
	1    0    0    -1  
$EndComp
Text GLabel 3435 2935 2    50   Input ~ 0
SDA
Text GLabel 3435 2835 2    50   Input ~ 0
SCL
Text GLabel 1025 4275 3    50   Input ~ 0
Key1
Text GLabel 1125 4275 3    50   Input ~ 0
Key2
Text GLabel 1225 4275 3    50   Input ~ 0
Key3
Text GLabel 1325 4275 3    50   Input ~ 0
Key4
Text GLabel 1425 4275 3    50   Input ~ 0
Key5
Text GLabel 1525 4275 3    50   Input ~ 0
Key6
Text GLabel 1625 4275 3    50   Input ~ 0
Key7
Text GLabel 1100 4995 3    50   Input ~ 0
Key1
Text GLabel 1570 4970 3    50   Input ~ 0
Key2
Text GLabel 6400 1030 2    50   Input ~ 0
Key3
Text GLabel 6400 1130 2    50   Input ~ 0
Key4
Text GLabel 6400 1230 2    50   Input ~ 0
Key5
Text GLabel 6400 1330 2    50   Input ~ 0
Key6
Text GLabel 6400 2130 2    50   Input ~ 0
Key7
$Comp
L power:VCC #PWR0103
U 1 1 5B7A617A
P 4190 1140
F 0 "#PWR0103" H 4190 990 50  0001 C CNN
F 1 "VCC" H 4207 1313 50  0000 C CNN
F 2 "" H 4190 1140 50  0001 C CNN
F 3 "" H 4190 1140 50  0001 C CNN
	1    4190 1140
	1    0    0    -1  
$EndComp
Text GLabel 8665 1840 2    50   Input ~ 0
SDA
Text GLabel 7770 2095 2    50   Input ~ 0
SCL
$Comp
L power:GND #PWR0104
U 1 1 5B7A63D5
P 4415 3355
F 0 "#PWR0104" H 4415 3105 50  0001 C CNN
F 1 "GND" H 4420 3182 50  0000 C CNN
F 2 "" H 4415 3355 50  0001 C CNN
F 3 "" H 4415 3355 50  0001 C CNN
	1    4415 3355
	1    0    0    -1  
$EndComp
$Comp
L fab:ATMEGA88-THIN IC1
U 1 1 5B7F1CBC
P 5400 2030
F 0 "IC1" H 5450 3284 45  0000 C CNN
F 1 "ATMEGA88-THIN" H 5450 3200 45  0000 C CNN
F 2 "fab:fab-TQFP32-08THIN" H 5430 2180 20  0001 C CNN
F 3 "" H 5400 2030 60  0001 C CNN
	1    5400 2030
	1    0    0    -1  
$EndComp
Text GLabel 4500 1030 0    50   Input ~ 0
RST
Wire Wire Line
	4500 1430 4430 1430
Wire Wire Line
	4430 1430 4430 1330
Wire Wire Line
	4430 1230 4500 1230
Wire Wire Line
	4500 1330 4430 1330
Connection ~ 4430 1330
Wire Wire Line
	4430 1330 4430 1230
Wire Wire Line
	4500 1630 4430 1630
Wire Wire Line
	4430 1630 4430 1430
Connection ~ 4430 1430
Wire Wire Line
	4500 3030 4415 3030
Wire Wire Line
	4415 3030 4415 3130
Wire Wire Line
	4415 3230 4500 3230
Wire Wire Line
	4500 3130 4415 3130
Connection ~ 4415 3130
Wire Wire Line
	4415 3130 4415 3230
Wire Wire Line
	4415 3230 4415 3355
Connection ~ 4415 3230
Wire Wire Line
	4430 1230 4190 1230
Wire Wire Line
	4190 1230 4190 1140
Connection ~ 4430 1230
$Comp
L power:VCC #PWR01
U 1 1 5B7F8E44
P 1090 1030
F 0 "#PWR01" H 1090 880 50  0001 C CNN
F 1 "VCC" H 1107 1203 50  0000 C CNN
F 2 "" H 1090 1030 50  0001 C CNN
F 3 "" H 1090 1030 50  0001 C CNN
	1    1090 1030
	1    0    0    -1  
$EndComp
$Comp
L fab:LEDRGBOLD LED4
U 1 1 5B78D066
P 3375 1235
F 0 "LED4" H 3653 1315 45  0000 L CNN
F 1 "LEDRGBOLD" H 3653 1273 45  0001 L CNN
F 2 "fab:fab-P-LCC-4-3" H 3405 1385 20  0001 C CNN
F 3 "" H 3375 1235 60  0001 C CNN
	1    3375 1235
	1    0    0    -1  
$EndComp
$Comp
L power:VCC #PWR02
U 1 1 5B7F9038
P 1810 1035
F 0 "#PWR02" H 1810 885 50  0001 C CNN
F 1 "VCC" H 1827 1208 50  0000 C CNN
F 2 "" H 1810 1035 50  0001 C CNN
F 3 "" H 1810 1035 50  0001 C CNN
	1    1810 1035
	1    0    0    -1  
$EndComp
$Comp
L power:VCC #PWR03
U 1 1 5B7F9101
P 2490 1035
F 0 "#PWR03" H 2490 885 50  0001 C CNN
F 1 "VCC" H 2507 1208 50  0000 C CNN
F 2 "" H 2490 1035 50  0001 C CNN
F 3 "" H 2490 1035 50  0001 C CNN
	1    2490 1035
	1    0    0    -1  
$EndComp
$Comp
L power:VCC #PWR04
U 1 1 5B7F91F0
P 3175 1035
F 0 "#PWR04" H 3175 885 50  0001 C CNN
F 1 "VCC" H 3192 1208 50  0000 C CNN
F 2 "" H 3175 1035 50  0001 C CNN
F 3 "" H 3175 1035 50  0001 C CNN
	1    3175 1035
	1    0    0    -1  
$EndComp
$Comp
L Connector:Conn_01x05_Male J3
U 1 1 5B7F9636
P 3870 4315
F 0 "J3" H 3640 4205 50  0000 R CNN
F 1 "Power conn" H 3840 4315 50  0000 R CNN
F 2 "Connector_PinHeader_2.54mm:PinHeader_1x05_P2.54mm_Vertical" H 3870 4315 50  0001 C CNN
F 3 "~" H 3870 4315 50  0001 C CNN
	1    3870 4315
	-1   0    0    -1  
$EndComp
$Comp
L power:+12V #PWR010
U 1 1 5B7FA286
P 3585 4065
F 0 "#PWR010" H 3585 3915 50  0001 C CNN
F 1 "+12V" H 3600 4238 50  0000 C CNN
F 2 "" H 3585 4065 50  0001 C CNN
F 3 "" H 3585 4065 50  0001 C CNN
	1    3585 4065
	1    0    0    -1  
$EndComp
$Comp
L power:VCC #PWR09
U 1 1 5B7FA35F
P 3450 4145
F 0 "#PWR09" H 3450 3995 50  0001 C CNN
F 1 "VCC" H 3467 4318 50  0000 C CNN
F 2 "" H 3450 4145 50  0001 C CNN
F 3 "" H 3450 4145 50  0001 C CNN
	1    3450 4145
	1    0    0    -1  
$EndComp
$Comp
L power:+3V8 #PWR08
U 1 1 5B7FA481
P 3320 4360
F 0 "#PWR08" H 3320 4210 50  0001 C CNN
F 1 "+3V8" H 3335 4533 50  0000 C CNN
F 2 "" H 3320 4360 50  0001 C CNN
F 3 "" H 3320 4360 50  0001 C CNN
	1    3320 4360
	1    0    0    -1  
$EndComp
$Comp
L power:+3V3 #PWR07
U 1 1 5B7FA587
P 3150 4440
F 0 "#PWR07" H 3150 4290 50  0001 C CNN
F 1 "+3V3" H 3165 4613 50  0000 C CNN
F 2 "" H 3150 4440 50  0001 C CNN
F 3 "" H 3150 4440 50  0001 C CNN
	1    3150 4440
	1    0    0    -1  
$EndComp
Wire Wire Line
	3585 4065 3585 4115
Wire Wire Line
	3585 4115 3670 4115
Wire Wire Line
	3670 4215 3450 4215
Wire Wire Line
	3450 4215 3450 4145
$Comp
L power:GND #PWR011
U 1 1 5B7FADC8
P 3670 4315
F 0 "#PWR011" H 3670 4065 50  0001 C CNN
F 1 "GND" H 3675 4142 50  0000 C CNN
F 2 "" H 3670 4315 50  0001 C CNN
F 3 "" H 3670 4315 50  0001 C CNN
	1    3670 4315
	0    1    1    0   
$EndComp
$Comp
L Connector:Conn_01x01_Male J4
U 1 1 5B7FB2DA
P 6960 4270
F 0 "J4" H 6932 4200 50  0000 R CNN
F 1 "Reset conn" H 6932 4291 50  0000 R CNN
F 2 "Connector_PinHeader_2.54mm:PinHeader_1x01_P2.54mm_Vertical" H 6960 4270 50  0001 C CNN
F 3 "~" H 6960 4270 50  0001 C CNN
	1    6960 4270
	-1   0    0    1   
$EndComp
Text GLabel 6760 4270 0    50   Input ~ 0
RST
$Comp
L Connector_Generic:Conn_02x03_Odd_Even J1
U 1 1 5B7FC355
P 2360 4390
F 0 "J1" H 2410 4707 50  0000 C CNN
F 1 "SPI conn" H 2410 4616 50  0000 C CNN
F 2 "Connector_PinHeader_2.54mm:PinHeader_2x03_P2.54mm_Vertical" H 2360 4390 50  0001 C CNN
F 3 "~" H 2360 4390 50  0001 C CNN
	1    2360 4390
	1    0    0    -1  
$EndComp
Text GLabel 2160 4490 0    50   Input ~ 0
SS
Text GLabel 2660 4290 2    50   Input ~ 0
SCK
Text GLabel 2160 4390 0    50   Input ~ 0
MOSI
Text GLabel 2160 4290 0    50   Input ~ 0
MISO
$Comp
L power:GND #PWR06
U 1 1 5B7FCA9F
P 2660 4390
F 0 "#PWR06" H 2660 4140 50  0001 C CNN
F 1 "GND" V 2665 4217 50  0000 C CNN
F 2 "" H 2660 4390 50  0001 C CNN
F 3 "" H 2660 4390 50  0001 C CNN
	1    2660 4390
	0    -1   -1   0   
$EndComp
$Comp
L power:+3V3 #PWR05
U 1 1 5B7FCBB2
P 2660 4490
F 0 "#PWR05" H 2660 4340 50  0001 C CNN
F 1 "+3V3" V 2675 4663 50  0000 C CNN
F 2 "" H 2660 4490 50  0001 C CNN
F 3 "" H 2660 4490 50  0001 C CNN
	1    2660 4490
	0    1    1    0   
$EndComp
Text GLabel 6400 3230 2    50   Input ~ 0
MISO
Text GLabel 6400 3130 2    50   Input ~ 0
MOSI
Text GLabel 6400 3030 2    50   Input ~ 0
SS
Text GLabel 6400 3330 2    50   Input ~ 0
SCK
$Comp
L Connector:Conn_01x06_Male J5
U 1 1 5B805277
P 4810 4160
F 0 "J5" V 4660 4140 50  0000 R CNN
F 1 "GSM conn" V 4750 4420 50  0000 R CNN
F 2 "Connector_PinHeader_2.54mm:PinHeader_1x06_P2.54mm_Vertical" H 4810 4160 50  0001 C CNN
F 3 "~" H 4810 4160 50  0001 C CNN
	1    4810 4160
	0    -1   1    0   
$EndComp
Text GLabel 4810 4830 3    50   Input ~ 0
RXD
Text GLabel 4710 4360 3    50   Input ~ 0
TXD
$Comp
L power:GND #PWR0105
U 1 1 5B805731
P 4610 4360
F 0 "#PWR0105" H 4610 4110 50  0001 C CNN
F 1 "GND" V 4615 4187 50  0000 C CNN
F 2 "" H 4610 4360 50  0001 C CNN
F 3 "" H 4610 4360 50  0001 C CNN
	1    4610 4360
	1    0    0    -1  
$EndComp
NoConn ~ 4910 4360
$Comp
L power:+3V8 #PWR0106
U 1 1 5B805C04
P 5010 4360
F 0 "#PWR0106" H 5010 4210 50  0001 C CNN
F 1 "+3V8" H 5010 4535 50  0000 C CNN
F 2 "" H 5010 4360 50  0001 C CNN
F 3 "" H 5010 4360 50  0001 C CNN
	1    5010 4360
	-1   0    0    1   
$EndComp
NoConn ~ 5110 4360
$Comp
L power:VCC #PWR0107
U 1 1 5B806C1F
P 5620 4255
F 0 "#PWR0107" H 5620 4105 50  0001 C CNN
F 1 "VCC" H 5637 4428 50  0000 C CNN
F 2 "" H 5620 4255 50  0001 C CNN
F 3 "" H 5620 4255 50  0001 C CNN
	1    5620 4255
	1    0    0    -1  
$EndComp
Text GLabel 5620 4355 0    50   Input ~ 0
SDA
Text GLabel 6120 4355 2    50   Input ~ 0
SCL
$Comp
L power:GND #PWR0108
U 1 1 5B807A22
P 6120 4255
F 0 "#PWR0108" H 6120 4005 50  0001 C CNN
F 1 "GND" H 6125 4082 50  0000 C CNN
F 2 "" H 6120 4255 50  0001 C CNN
F 3 "" H 6120 4255 50  0001 C CNN
	1    6120 4255
	-1   0    0    1   
$EndComp
Text GLabel 6400 1930 2    50   Input ~ 0
TXD
Text GLabel 6400 2030 2    50   Input ~ 0
RXD
$Comp
L Connector_Generic:Conn_02x02_Odd_Even J6
U 1 1 5B80A392
P 5820 4255
F 0 "J6" H 5870 4472 50  0000 C CNN
F 1 "I2C conn" H 5870 4381 50  0000 C CNN
F 2 "Connector_PinHeader_2.54mm:PinHeader_2x02_P2.54mm_Vertical" H 5820 4255 50  0001 C CNN
F 3 "~" H 5820 4255 50  0001 C CNN
	1    5820 4255
	1    0    0    -1  
$EndComp
NoConn ~ 6400 1730
$Comp
L Connector:Conn_01x02_Male J7
U 1 1 5B80D44C
P 7155 885
F 0 "J7" V 7015 865 50  0000 R CNN
F 1 "Back Button conn" V 7105 1135 50  0000 R CNN
F 2 "Connector_PinHeader_2.54mm:PinHeader_1x02_P2.54mm_Vertical" H 7155 885 50  0001 C CNN
F 3 "~" H 7155 885 50  0001 C CNN
	1    7155 885 
	0    -1   1    0   
$EndComp
$Comp
L Connector:Conn_01x02_Male J8
U 1 1 5B80E22A
P 8015 880
F 0 "J8" V 7875 860 50  0000 R CNN
F 1 "Front Button conn" V 7965 1130 50  0000 R CNN
F 2 "Connector_PinHeader_2.54mm:PinHeader_1x02_P2.54mm_Vertical" H 8015 880 50  0001 C CNN
F 3 "~" H 8015 880 50  0001 C CNN
	1    8015 880 
	0    -1   1    0   
$EndComp
Text GLabel 7255 1300 3    50   Input ~ 0
BTN_1
Text GLabel 8115 1295 3    50   Input ~ 0
BTN_2
Text GLabel 4500 2030 0    50   Input ~ 0
BTN_1
Text GLabel 4500 2230 0    50   Input ~ 0
BTN_2
$Comp
L Device:R R13
U 1 1 5B80F3E9
P 7480 1170
F 0 "R13" H 7550 1216 50  0000 L CNN
F 1 "1K" H 7550 1125 50  0000 L CNN
F 2 "Resistor_SMD:R_1206_3216Metric_Pad1.42x1.75mm_HandSolder" V 7410 1170 50  0001 C CNN
F 3 "~" H 7480 1170 50  0001 C CNN
	1    7480 1170
	0    -1   -1   0   
$EndComp
$Comp
L Device:R R14
U 1 1 5B80F8D0
P 8420 1160
F 0 "R14" H 8490 1206 50  0000 L CNN
F 1 "1K" H 8490 1115 50  0000 L CNN
F 2 "Resistor_SMD:R_1206_3216Metric_Pad1.42x1.75mm_HandSolder" V 8350 1160 50  0001 C CNN
F 3 "~" H 8420 1160 50  0001 C CNN
	1    8420 1160
	0    -1   -1   0   
$EndComp
Wire Wire Line
	7330 1170 7255 1170
Connection ~ 7255 1170
Wire Wire Line
	7255 1170 7255 1085
$Comp
L power:GND #PWR012
U 1 1 5B8101F3
P 7155 1085
F 0 "#PWR012" H 7155 835 50  0001 C CNN
F 1 "GND" H 7160 912 50  0000 C CNN
F 2 "" H 7155 1085 50  0001 C CNN
F 3 "" H 7155 1085 50  0001 C CNN
	1    7155 1085
	1    0    0    -1  
$EndComp
$Comp
L power:VCC #PWR013
U 1 1 5B8103A2
P 7630 1170
F 0 "#PWR013" H 7630 1020 50  0001 C CNN
F 1 "VCC" H 7647 1343 50  0000 C CNN
F 2 "" H 7630 1170 50  0001 C CNN
F 3 "" H 7630 1170 50  0001 C CNN
	1    7630 1170
	1    0    0    -1  
$EndComp
$Comp
L power:GND #PWR014
U 1 1 5B810471
P 8015 1080
F 0 "#PWR014" H 8015 830 50  0001 C CNN
F 1 "GND" H 8020 907 50  0000 C CNN
F 2 "" H 8015 1080 50  0001 C CNN
F 3 "" H 8015 1080 50  0001 C CNN
	1    8015 1080
	1    0    0    -1  
$EndComp
$Comp
L power:VCC #PWR015
U 1 1 5B8104B4
P 8570 1160
F 0 "#PWR015" H 8570 1010 50  0001 C CNN
F 1 "VCC" H 8587 1333 50  0000 C CNN
F 2 "" H 8570 1160 50  0001 C CNN
F 3 "" H 8570 1160 50  0001 C CNN
	1    8570 1160
	1    0    0    -1  
$EndComp
Wire Wire Line
	8115 1295 8115 1160
Wire Wire Line
	8270 1160 8115 1160
Connection ~ 8115 1160
Wire Wire Line
	8115 1160 8115 1080
Wire Wire Line
	7255 1170 7255 1300
$Comp
L Device:R R15
U 1 1 5B813276
P 4810 4680
F 0 "R15" H 4880 4726 50  0000 L CNN
F 1 "0R" H 4880 4635 50  0000 L CNN
F 2 "Resistor_SMD:R_1206_3216Metric_Pad1.42x1.75mm_HandSolder" V 4740 4680 50  0001 C CNN
F 3 "~" H 4810 4680 50  0001 C CNN
	1    4810 4680
	1    0    0    -1  
$EndComp
Wire Wire Line
	4810 4360 4810 4530
Wire Wire Line
	3670 4415 3320 4415
Wire Wire Line
	3320 4415 3320 4360
Wire Wire Line
	3670 4515 3150 4515
Wire Wire Line
	3150 4515 3150 4440
$Comp
L Device:R R16
U 1 1 5B81C79B
P 7315 1840
F 0 "R16" H 7385 1886 50  0000 L CNN
F 1 "0R" H 7385 1795 50  0000 L CNN
F 2 "Resistor_SMD:R_1206_3216Metric_Pad1.42x1.75mm_HandSolder" V 7245 1840 50  0001 C CNN
F 3 "~" H 7315 1840 50  0001 C CNN
	1    7315 1840
	0    -1   -1   0   
$EndComp
$Comp
L Device:R R18
U 1 1 5B81D255
P 7615 1840
F 0 "R18" H 7685 1886 50  0000 L CNN
F 1 "0R" H 7685 1795 50  0000 L CNN
F 2 "Resistor_SMD:R_1206_3216Metric_Pad1.42x1.75mm_HandSolder" V 7545 1840 50  0001 C CNN
F 3 "~" H 7615 1840 50  0001 C CNN
	1    7615 1840
	0    -1   -1   0   
$EndComp
$Comp
L Device:R R20
U 1 1 5B81D381
P 7915 1840
F 0 "R20" H 7985 1886 50  0000 L CNN
F 1 "0R" H 7985 1795 50  0000 L CNN
F 2 "Resistor_SMD:R_1206_3216Metric_Pad1.42x1.75mm_HandSolder" V 7845 1840 50  0001 C CNN
F 3 "~" H 7915 1840 50  0001 C CNN
	1    7915 1840
	0    -1   -1   0   
$EndComp
$Comp
L Device:R R21
U 1 1 5B81D425
P 8215 1840
F 0 "R21" H 8285 1886 50  0000 L CNN
F 1 "0R" H 8285 1795 50  0000 L CNN
F 2 "Resistor_SMD:R_1206_3216Metric_Pad1.42x1.75mm_HandSolder" V 8145 1840 50  0001 C CNN
F 3 "~" H 8215 1840 50  0001 C CNN
	1    8215 1840
	0    -1   -1   0   
$EndComp
$Comp
L Device:R R17
U 1 1 5B81DE2E
P 7320 2095
F 0 "R17" H 7390 2141 50  0000 L CNN
F 1 "0R" H 7390 2050 50  0000 L CNN
F 2 "Resistor_SMD:R_1206_3216Metric_Pad1.42x1.75mm_HandSolder" V 7250 2095 50  0001 C CNN
F 3 "~" H 7320 2095 50  0001 C CNN
	1    7320 2095
	0    -1   -1   0   
$EndComp
$Comp
L Device:R R19
U 1 1 5B81DE35
P 7620 2095
F 0 "R19" H 7690 2141 50  0000 L CNN
F 1 "0R" H 7690 2050 50  0000 L CNN
F 2 "Resistor_SMD:R_1206_3216Metric_Pad1.42x1.75mm_HandSolder" V 7550 2095 50  0001 C CNN
F 3 "~" H 7620 2095 50  0001 C CNN
	1    7620 2095
	0    -1   -1   0   
$EndComp
Text GLabel 7170 2095 0    50   Input ~ 0
SCL_JMP
Text GLabel 7165 1840 0    50   Input ~ 0
SDA_JMP
Text GLabel 6400 1430 2    50   Input ~ 0
SDA_JMP
Text GLabel 6400 1530 2    50   Input ~ 0
SCL_JMP
$Comp
L Connector:Conn_01x01_Male J12
U 1 1 5B8258CD
P 7920 2360
F 0 "J12" V 7980 2400 50  0000 L CNN
F 1 "Key2 jmp" V 8071 2400 50  0000 L CNN
F 2 "Connector_PinHeader_2.54mm:PinHeader_1x01_P2.54mm_Vertical" H 7920 2360 50  0001 C CNN
F 3 "~" H 7920 2360 50  0001 C CNN
	1    7920 2360
	0    1    1    0   
$EndComp
$Comp
L Connector:Conn_01x01_Male J11
U 1 1 5B825A67
P 7450 2360
F 0 "J11" V 7510 2401 50  0000 L CNN
F 1 "Key1 jmp" V 7601 2401 50  0000 L CNN
F 2 "Connector_PinHeader_2.54mm:PinHeader_1x01_P2.54mm_Vertical" H 7450 2360 50  0001 C CNN
F 3 "~" H 7450 2360 50  0001 C CNN
	1    7450 2360
	0    1    1    0   
$EndComp
$Comp
L Connector:Conn_01x01_Male J10
U 1 1 5B82832A
P 1570 4770
F 0 "J10" V 1630 4811 50  0000 L CNN
F 1 "Key2 conn" V 1721 4811 50  0000 L CNN
F 2 "Connector_PinHeader_2.54mm:PinHeader_1x01_P2.54mm_Vertical" H 1570 4770 50  0001 C CNN
F 3 "~" H 1570 4770 50  0001 C CNN
	1    1570 4770
	0    1    1    0   
$EndComp
$Comp
L Connector:Conn_01x01_Male J9
U 1 1 5B828331
P 1100 4795
F 0 "J9" V 1160 4836 50  0000 L CNN
F 1 "Key1 conn" V 1251 4836 50  0000 L CNN
F 2 "Connector_PinHeader_2.54mm:PinHeader_1x01_P2.54mm_Vertical" H 1100 4795 50  0001 C CNN
F 3 "~" H 1100 4795 50  0001 C CNN
	1    1100 4795
	0    1    1    0   
$EndComp
Text GLabel 6400 2830 2    50   Input ~ 0
Key1_JMP
Text GLabel 6400 2630 2    50   Input ~ 0
Key2_JMP
Text GLabel 7450 2560 3    50   Input ~ 0
Key1_JMP
Text GLabel 7920 2560 3    50   Input ~ 0
Key2_JMP
$Comp
L Device:Jumper JP1
U 1 1 5B82E02F
P 8100 4285
F 0 "JP1" H 8100 4549 50  0000 C CNN
F 1 "Jumper" H 8100 4458 50  0000 C CNN
F 2 "Resistor_SMD:R_0805_2012Metric" H 8100 4285 50  0001 C CNN
F 3 "~" H 8100 4285 50  0001 C CNN
	1    8100 4285
	1    0    0    -1  
$EndComp
$Comp
L power:VCC #PWR0109
U 1 1 5B82E529
P 7800 4285
F 0 "#PWR0109" H 7800 4135 50  0001 C CNN
F 1 "VCC" H 7817 4458 50  0000 C CNN
F 2 "" H 7800 4285 50  0001 C CNN
F 3 "" H 7800 4285 50  0001 C CNN
	1    7800 4285
	1    0    0    -1  
$EndComp
$Comp
L power:VCC #PWR0110
U 1 1 5B82E601
P 8400 4285
F 0 "#PWR0110" H 8400 4135 50  0001 C CNN
F 1 "VCC" H 8417 4458 50  0000 C CNN
F 2 "" H 8400 4285 50  0001 C CNN
F 3 "" H 8400 4285 50  0001 C CNN
	1    8400 4285
	1    0    0    -1  
$EndComp
$Comp
L Connector:Conn_01x02_Male J13
U 1 1 5B831B79
P 7155 3360
F 0 "J13" V 7015 3340 50  0000 R CNN
F 1 "Stepper driver conn" V 7105 3610 50  0000 R CNN
F 2 "Connector_PinHeader_2.54mm:PinHeader_1x02_P2.54mm_Vertical" H 7155 3360 50  0001 C CNN
F 3 "~" H 7155 3360 50  0001 C CNN
	1    7155 3360
	0    -1   1    0   
$EndComp
Text GLabel 7155 3560 3    50   Input ~ 0
DIR
Text GLabel 7255 3560 3    50   Input ~ 0
STEP
Text GLabel 6400 2230 2    50   Input ~ 0
STEP
Text GLabel 6400 2330 2    50   Input ~ 0
DIR
$Comp
L Connector:Conn_01x03_Male J14
U 1 1 5B835B63
P 8040 3390
F 0 "J14" V 7890 3405 50  0000 R CNN
F 1 "GND conn" V 7980 3540 50  0000 R CNN
F 2 "Connector_PinHeader_2.54mm:PinHeader_1x03_P2.54mm_Vertical" H 8040 3390 50  0001 C CNN
F 3 "~" H 8040 3390 50  0001 C CNN
	1    8040 3390
	0    -1   1    0   
$EndComp
$Comp
L power:GND #PWR016
U 1 1 5B83689A
P 8040 3740
F 0 "#PWR016" H 8040 3490 50  0001 C CNN
F 1 "GND" H 8045 3567 50  0000 C CNN
F 2 "" H 8040 3740 50  0001 C CNN
F 3 "" H 8040 3740 50  0001 C CNN
	1    8040 3740
	1    0    0    -1  
$EndComp
Wire Wire Line
	8040 3590 8040 3660
Wire Wire Line
	8140 3590 8140 3660
Wire Wire Line
	8140 3660 8040 3660
Connection ~ 8040 3660
Wire Wire Line
	8040 3660 8040 3740
Wire Wire Line
	7940 3590 7940 3660
Wire Wire Line
	7940 3660 8040 3660
$Comp
L Connector:Conn_01x01_Male J15
U 1 1 5B812F24
P 2680 5015
F 0 "J15" H 2653 4945 50  0000 R CNN
F 1 "Conn_01x01_Male" H 2653 5036 50  0000 R CNN
F 2 "Connector_PinHeader_2.54mm:PinHeader_1x01_P2.54mm_Vertical" H 2680 5015 50  0001 C CNN
F 3 "~" H 2680 5015 50  0001 C CNN
	1    2680 5015
	-1   0    0    1   
$EndComp
$Comp
L power:+12V #PWR017
U 1 1 5B81372B
P 2375 4935
F 0 "#PWR017" H 2375 4785 50  0001 C CNN
F 1 "+12V" H 2390 5108 50  0000 C CNN
F 2 "" H 2375 4935 50  0001 C CNN
F 3 "" H 2375 4935 50  0001 C CNN
	1    2375 4935
	1    0    0    -1  
$EndComp
Wire Wire Line
	2480 5015 2375 5015
Wire Wire Line
	2375 5015 2375 4935
$Comp
L Device:R R22
U 1 1 5B81D4F5
P 8515 1840
F 0 "R22" H 8585 1886 50  0000 L CNN
F 1 "0R" H 8585 1795 50  0000 L CNN
F 2 "Resistor_SMD:R_1206_3216Metric_Pad1.42x1.75mm_HandSolder" V 8445 1840 50  0001 C CNN
F 3 "~" H 8515 1840 50  0001 C CNN
	1    8515 1840
	0    -1   -1   0   
$EndComp
$Comp
L Connector:Conn_01x01_Male J16
U 1 1 5B8D16E2
P 4150 5125
F 0 "J16" H 4122 5055 50  0000 R CNN
F 1 "Enable conn" H 4122 5146 50  0000 R CNN
F 2 "Connector_PinHeader_2.54mm:PinHeader_1x01_P2.54mm_Vertical" H 4150 5125 50  0001 C CNN
F 3 "~" H 4150 5125 50  0001 C CNN
	1    4150 5125
	-1   0    0    1   
$EndComp
Text GLabel 3950 5125 0    50   Input ~ 0
ENABLE
Text GLabel 6400 1630 2    50   Input ~ 0
ENABLE
$EndSCHEMATC
