EESchema Schematic File Version 4
LIBS:Power supply circuit-cache
EELAYER 26 0
EELAYER END
$Descr User 6693 6693
encoding utf-8
Sheet 1 1
Title "Hand Pump locker - Power supply"
Date "2018-08-27"
Rev "2.0"
Comp ""
Comment1 ""
Comment2 ""
Comment3 ""
Comment4 ""
$EndDescr
$Comp
L Device:Battery BT1
U 1 1 5B59E398
P 895 2570
F 0 "BT1" H 1003 2616 50  0000 L CNN
F 1 "Battery" H 1003 2525 50  0000 L CNN
F 2 "TerminalBlock_RND:TerminalBlock_RND_205-00298_1x02_P10.00mm_Horizontal" V 895 2630 50  0001 C CNN
F 3 "~" V 895 2630 50  0001 C CNN
	1    895  2570
	1    0    0    -1  
$EndComp
$Comp
L Regulator_Linear:LM1117-5.0 U1
U 1 1 5B59E9FA
P 2195 2360
F 0 "U1" H 2195 2602 50  0000 C CNN
F 1 "LM1117-5.0" H 2195 2511 50  0000 C CNN
F 2 "Package_TO_SOT_SMD:SOT-223-3_TabPin2" H 2195 2360 50  0001 C CNN
F 3 "http://www.ti.com/lit/ds/symlink/lm1117.pdf" H 2195 2360 50  0001 C CNN
	1    2195 2360
	1    0    0    -1  
$EndComp
$Comp
L power:GND #PWR06
U 1 1 5B75ADE8
P 2195 2660
F 0 "#PWR06" H 2195 2410 50  0001 C CNN
F 1 "GND" H 2200 2487 50  0000 C CNN
F 2 "" H 2195 2660 50  0001 C CNN
F 3 "" H 2195 2660 50  0001 C CNN
	1    2195 2660
	1    0    0    -1  
$EndComp
$Comp
L power:+3.3V #PWR09
U 1 1 5B75AEE1
P 2995 1245
F 0 "#PWR09" H 2995 1095 50  0001 C CNN
F 1 "+3.3V" H 3010 1418 50  0000 C CNN
F 2 "" H 2995 1245 50  0001 C CNN
F 3 "" H 2995 1245 50  0001 C CNN
	1    2995 1245
	1    0    0    -1  
$EndComp
$Comp
L power:GND #PWR02
U 1 1 5B75B106
P 895 2770
F 0 "#PWR02" H 895 2520 50  0001 C CNN
F 1 "GND" H 900 2597 50  0000 C CNN
F 2 "" H 895 2770 50  0001 C CNN
F 3 "" H 895 2770 50  0001 C CNN
	1    895  2770
	1    0    0    -1  
$EndComp
Wire Wire Line
	2995 1245 2995 1315
Wire Wire Line
	2995 1315 2885 1315
Wire Wire Line
	1895 2360 1805 2360
Wire Wire Line
	1805 2360 1805 2315
$Comp
L power:+3V8 #PWR010
U 1 1 5B75B537
P 3665 2520
F 0 "#PWR010" H 3665 2370 50  0001 C CNN
F 1 "+3V8" H 3680 2693 50  0000 C CNN
F 2 "" H 3665 2520 50  0001 C CNN
F 3 "" H 3665 2520 50  0001 C CNN
	1    3665 2520
	1    0    0    -1  
$EndComp
$Comp
L power:+BATT #PWR01
U 1 1 5B75B634
P 895 2370
F 0 "#PWR01" H 895 2220 50  0001 C CNN
F 1 "+BATT" H 910 2543 50  0000 C CNN
F 2 "" H 895 2370 50  0001 C CNN
F 3 "" H 895 2370 50  0001 C CNN
	1    895  2370
	1    0    0    -1  
$EndComp
$Comp
L power:+3.3V #PWR013
U 1 1 5B75D946
P 4850 2100
F 0 "#PWR013" H 4850 1950 50  0001 C CNN
F 1 "+3.3V" H 4865 2273 50  0000 C CNN
F 2 "" H 4850 2100 50  0001 C CNN
F 3 "" H 4850 2100 50  0001 C CNN
	1    4850 2100
	1    0    0    -1  
$EndComp
$Comp
L power:+3V8 #PWR012
U 1 1 5B75D95D
P 5025 2020
F 0 "#PWR012" H 5025 1870 50  0001 C CNN
F 1 "+3V8" H 5040 2193 50  0000 C CNN
F 2 "" H 5025 2020 50  0001 C CNN
F 3 "" H 5025 2020 50  0001 C CNN
	1    5025 2020
	1    0    0    -1  
$EndComp
$Comp
L power:GND #PWR014
U 1 1 5B75DD8E
P 5100 2260
F 0 "#PWR014" H 5100 2010 50  0001 C CNN
F 1 "GND" H 5105 2087 50  0000 C CNN
F 2 "" H 5100 2260 50  0001 C CNN
F 3 "" H 5100 2260 50  0001 C CNN
	1    5100 2260
	0    1    1    0   
$EndComp
Wire Wire Line
	5025 2020 5025 2060
Wire Wire Line
	5025 2060 5100 2060
Wire Wire Line
	4850 2100 4850 2160
Wire Wire Line
	4850 2160 5100 2160
$Comp
L Device:R_Small R1
U 1 1 5B78A80C
P 2915 2810
F 0 "R1" H 2974 2856 50  0000 L CNN
F 1 "4.99K" H 2974 2765 50  0000 L CNN
F 2 "Resistor_SMD:R_1206_3216Metric_Pad1.42x1.75mm_HandSolder" H 2915 2810 50  0001 C CNN
F 3 "~" H 2915 2810 50  0001 C CNN
	1    2915 2810
	1    0    0    -1  
$EndComp
$Comp
L Device:R_Small R2
U 1 1 5B78A960
P 2915 2525
F 0 "R2" V 2719 2525 50  0000 C CNN
F 1 "1K" V 2810 2525 50  0000 C CNN
F 2 "Resistor_SMD:R_1206_3216Metric_Pad1.42x1.75mm_HandSolder" H 2915 2525 50  0001 C CNN
F 3 "~" H 2915 2525 50  0001 C CNN
	1    2915 2525
	1    0    0    -1  
$EndComp
$Comp
L power:GND #PWR08
U 1 1 5B78ADA7
P 2915 2910
F 0 "#PWR08" H 2915 2660 50  0001 C CNN
F 1 "GND" H 2920 2737 50  0000 C CNN
F 2 "" H 2915 2910 50  0001 C CNN
F 3 "" H 2915 2910 50  0001 C CNN
	1    2915 2910
	1    0    0    -1  
$EndComp
$Comp
L Device:C C1
U 1 1 5B837F47
P 1995 4105
F 0 "C1" H 2110 4151 50  0000 L CNN
F 1 "0.1uF" H 2110 4060 50  0000 L CNN
F 2 "Capacitor_SMD:C_1206_3216Metric_Pad1.42x1.75mm_HandSolder" H 2033 3955 50  0001 C CNN
F 3 "~" H 1995 4105 50  0001 C CNN
	1    1995 4105
	1    0    0    -1  
$EndComp
$Comp
L Device:C C2
U 1 1 5B83809B
P 2590 2555
F 0 "C2" H 2705 2601 50  0000 L CNN
F 1 "0.1uF" H 2705 2510 50  0000 L CNN
F 2 "Capacitor_SMD:C_1206_3216Metric_Pad1.42x1.75mm_HandSolder" H 2628 2405 50  0001 C CNN
F 3 "~" H 2590 2555 50  0001 C CNN
	1    2590 2555
	1    0    0    -1  
$EndComp
$Comp
L power:GND #PWR011
U 1 1 5B838F40
P 1995 4255
F 0 "#PWR011" H 1995 4005 50  0001 C CNN
F 1 "GND" H 2000 4082 50  0000 C CNN
F 2 "" H 1995 4255 50  0001 C CNN
F 3 "" H 1995 4255 50  0001 C CNN
	1    1995 4255
	1    0    0    -1  
$EndComp
Wire Wire Line
	2915 2625 2915 2670
Wire Wire Line
	2915 2360 2915 2425
Connection ~ 2915 2670
Wire Wire Line
	2915 2670 2915 2710
Wire Wire Line
	3665 2670 3665 2520
Wire Wire Line
	2915 2360 3200 2360
Wire Wire Line
	3200 2360 3200 2235
$Comp
L power:VCC #PWR017
U 1 1 5B83C794
P 3200 2235
F 0 "#PWR017" H 3200 2085 50  0001 C CNN
F 1 "VCC" H 3217 2408 50  0000 C CNN
F 2 "" H 3200 2235 50  0001 C CNN
F 3 "" H 3200 2235 50  0001 C CNN
	1    3200 2235
	1    0    0    -1  
$EndComp
$Comp
L power:GND #PWR016
U 1 1 5B83CFE4
P 2590 2705
F 0 "#PWR016" H 2590 2455 50  0001 C CNN
F 1 "GND" H 2595 2532 50  0000 C CNN
F 2 "" H 2590 2705 50  0001 C CNN
F 3 "" H 2590 2705 50  0001 C CNN
	1    2590 2705
	1    0    0    -1  
$EndComp
Wire Wire Line
	2590 2405 2590 2360
Wire Wire Line
	2590 2360 2495 2360
Wire Wire Line
	2590 2360 2915 2360
Connection ~ 2590 2360
Connection ~ 2915 2360
$Comp
L Connector:Conn_01x05_Male J1
U 1 1 5B83F49A
P 5300 2260
F 0 "J1" H 5273 2283 50  0000 R CNN
F 1 "Conn_01x05_Male" H 5273 2192 50  0000 R CNN
F 2 "Connector_PinHeader_2.54mm:PinHeader_1x05_P2.54mm_Vertical" H 5300 2260 50  0001 C CNN
F 3 "~" H 5300 2260 50  0001 C CNN
	1    5300 2260
	-1   0    0    -1  
$EndComp
$Comp
L power:VCC #PWR019
U 1 1 5B841299
P 4740 2295
F 0 "#PWR019" H 4740 2145 50  0001 C CNN
F 1 "VCC" H 4757 2468 50  0000 C CNN
F 2 "" H 4740 2295 50  0001 C CNN
F 3 "" H 4740 2295 50  0001 C CNN
	1    4740 2295
	1    0    0    -1  
$EndComp
$Comp
L fab:SLIDE-SWITCH S1
U 1 1 5B8C4044
P 2965 4105
F 0 "S1" H 2965 4384 45  0000 C CNN
F 1 "SLIDE-SWITCH" H 2965 4300 45  0000 C CNN
F 2 "fab:fab-AYZ0102AGRLC" H 2995 4255 20  0001 C CNN
F 3 "" H 2965 4105 60  0001 C CNN
	1    2965 4105
	1    0    0    -1  
$EndComp
$Comp
L power:+12V #PWR0101
U 1 1 5B8C43CB
P 3395 4005
F 0 "#PWR0101" H 3395 3855 50  0001 C CNN
F 1 "+12V" H 3410 4178 50  0000 C CNN
F 2 "" H 3395 4005 50  0001 C CNN
F 3 "" H 3395 4005 50  0001 C CNN
	1    3395 4005
	1    0    0    -1  
$EndComp
$Comp
L power:+12V #PWR0102
U 1 1 5B8C7413
P 2095 1070
F 0 "#PWR0102" H 2095 920 50  0001 C CNN
F 1 "+12V" H 2110 1243 50  0000 C CNN
F 2 "" H 2095 1070 50  0001 C CNN
F 3 "" H 2095 1070 50  0001 C CNN
	1    2095 1070
	1    0    0    -1  
$EndComp
$Comp
L power:+12V #PWR0103
U 1 1 5B8C746E
P 1805 2315
F 0 "#PWR0103" H 1805 2165 50  0001 C CNN
F 1 "+12V" H 1820 2488 50  0000 C CNN
F 2 "" H 1805 2315 50  0001 C CNN
F 3 "" H 1805 2315 50  0001 C CNN
	1    1805 2315
	1    0    0    -1  
$EndComp
$Comp
L power:+12V #PWR0104
U 1 1 5B8C7594
P 1995 3955
F 0 "#PWR0104" H 1995 3805 50  0001 C CNN
F 1 "+12V" H 2010 4128 50  0000 C CNN
F 2 "" H 1995 3955 50  0001 C CNN
F 3 "" H 1995 3955 50  0001 C CNN
	1    1995 3955
	1    0    0    -1  
$EndComp
$Comp
L power:+12V #PWR0105
U 1 1 5B8C76EA
P 4575 2395
F 0 "#PWR0105" H 4575 2245 50  0001 C CNN
F 1 "+12V" H 4590 2568 50  0000 C CNN
F 2 "" H 4575 2395 50  0001 C CNN
F 3 "" H 4575 2395 50  0001 C CNN
	1    4575 2395
	1    0    0    -1  
$EndComp
$Comp
L power:+BATT #PWR0106
U 1 1 5B8C7910
P 2545 3980
F 0 "#PWR0106" H 2545 3830 50  0001 C CNN
F 1 "+BATT" H 2560 4153 50  0000 C CNN
F 2 "" H 2545 3980 50  0001 C CNN
F 3 "" H 2545 3980 50  0001 C CNN
	1    2545 3980
	1    0    0    -1  
$EndComp
Wire Wire Line
	2765 4105 2545 4105
Wire Wire Line
	2545 4105 2545 3980
Wire Wire Line
	2915 2670 3665 2670
$Comp
L power:GND #PWR07
U 1 1 5B75AE32
P 2585 1615
F 0 "#PWR07" H 2585 1365 50  0001 C CNN
F 1 "GND" H 2590 1442 50  0000 C CNN
F 2 "" H 2585 1615 50  0001 C CNN
F 3 "" H 2585 1615 50  0001 C CNN
	1    2585 1615
	1    0    0    -1  
$EndComp
$Comp
L Regulator_Linear:LM1117-3.3 U2
U 1 1 5B59E66C
P 2585 1315
F 0 "U2" H 2585 1557 50  0000 C CNN
F 1 "LM1117-3.3" H 2585 1466 50  0000 C CNN
F 2 "Package_TO_SOT_SMD:SOT-223-3_TabPin2" H 2585 1315 50  0001 C CNN
F 3 "http://www.ti.com/lit/ds/symlink/lm1117.pdf" H 2585 1315 50  0001 C CNN
	1    2585 1315
	1    0    0    -1  
$EndComp
Wire Wire Line
	3165 4205 3395 4205
Wire Wire Line
	3395 4205 3395 4005
$Comp
L Device:R_Small R3
U 1 1 5B8CCD61
P 2095 1170
F 0 "R3" H 2154 1216 50  0000 L CNN
F 1 "0R" H 2154 1125 50  0000 L CNN
F 2 "Resistor_SMD:R_1206_3216Metric_Pad1.42x1.75mm_HandSolder" H 2095 1170 50  0001 C CNN
F 3 "~" H 2095 1170 50  0001 C CNN
	1    2095 1170
	1    0    0    -1  
$EndComp
Wire Wire Line
	2095 1270 2095 1315
Wire Wire Line
	2095 1315 2285 1315
Wire Wire Line
	4740 2295 4740 2360
Wire Wire Line
	4740 2360 5100 2360
Wire Wire Line
	5100 2460 4575 2460
Wire Wire Line
	4575 2460 4575 2395
$EndSCHEMATC
