<?xml version="1.0" standalone="no"?>
 <!DOCTYPE svg PUBLIC "-//W3C//DTD SVG 1.1//EN" 
 "http://www.w3.org/Graphics/SVG/1.1/DTD/svg11.dtd"> 
<svg xmlns="http://www.w3.org/2000/svg" version="1.1" 
    width="10.5004cm" height="10.5004cm" viewBox="0 0 41340 41340 ">
<title>SVG Picture created as Power supply circuit-F.Cu.svg date 2018/09/02 22:40:46 </title>
  <desc>Picture generated by PCBNEW </desc>
<g style="fill:#000000; fill-opacity:1;stroke:#000000; stroke-opacity:1;
stroke-linecap:round; stroke-linejoin:round; "
 transform="translate(0 0) scale(1 1)">
</g>
<g style="fill:#000000; fill-opacity:0.0; 
stroke:#000000; stroke-width:-0.000393701; stroke-opacity:1; 
stroke-linecap:round; stroke-linejoin:round;">
</g>
<g style="fill:#000000; fill-opacity:0.0; 
stroke:#000000; stroke-width:0; stroke-opacity:1; 
stroke-linecap:round; stroke-linejoin:round;">
</g>
<g style="fill:#000000; fill-opacity:1.0; 
stroke:#000000; stroke-width:0; stroke-opacity:1; 
stroke-linecap:round; stroke-linejoin:round;">
<polyline style="fill-rule:evenodd;"
points="4428,35979
4438,35981
4447,35983
4456,35986
4465,35990
4473,35995
4481,36001
4488,36008
4495,36015
4501,36023
4506,36031
4510,36040
4513,36049
4515,36058
4517,36068
4517,36077
4517,36441
4517,36451
4515,36461
4513,36470
4510,36479
4506,36488
4501,36496
4495,36504
4488,36511
4481,36518
4473,36523
4465,36528
4456,36532
4447,36536
4438,36538
4428,36539
4419,36540
3927,36540
3917,36539
3907,36538
3898,36536
3889,36532
3880,36528
3872,36523
3864,36518
3857,36511
3851,36504
3845,36496
3840,36488
3836,36479
3832,36470
3830,36461
3829,36451
3828,36441
3828,36077
3829,36068
3830,36058
3832,36049
3836,36040
3840,36031
3845,36023
3851,36015
3857,36008
3864,36001
3872,35995
3880,35990
3889,35986
3898,35983
3907,35981
3917,35979
3927,35979
4419,35979
4428,35979
" /> 
<polyline style="fill-rule:evenodd;"
points="4428,34808
4438,34809
4447,34812
4456,34815
4465,34819
4473,34824
4481,34830
4488,34836
4495,34844
4501,34851
4506,34860
4510,34868
4513,34877
4515,34887
4517,34896
4517,34906
4517,35270
4517,35280
4515,35289
4513,35299
4510,35308
4506,35317
4501,35325
4495,35333
4488,35340
4481,35346
4473,35352
4465,35357
4456,35361
4447,35364
4438,35367
4428,35368
4419,35369
3927,35369
3917,35368
3907,35367
3898,35364
3889,35361
3880,35357
3872,35352
3864,35346
3857,35340
3851,35333
3845,35325
3840,35317
3836,35308
3832,35299
3830,35289
3829,35280
3828,35270
3828,34906
3829,34896
3830,34887
3832,34877
3836,34868
3840,34860
3845,34851
3851,34844
3857,34836
3864,34830
3872,34824
3880,34819
3889,34815
3898,34812
3907,34809
3917,34808
3927,34808
4419,34808
4428,34808
" /> 
<polyline style="fill-rule:evenodd;"
points="3090,38484
2106,38484
2106,37500
3090,37500
3090,38484
" /> 
<circle cx="2598.43" cy="34055.1" r="492.126" /> 
</g>
<g style="fill:#000000; fill-opacity:1.0; 
stroke:#000000; stroke-width:39.3701; stroke-opacity:1; 
stroke-linecap:round; stroke-linejoin:round;">
</g>
<g style="fill:#000000; fill-opacity:1.0; 
stroke:#000000; stroke-width:0; stroke-opacity:1; 
stroke-linecap:round; stroke-linejoin:round;">
<polyline style="fill-rule:evenodd;"
points="5905,39055
5905,39527
5512,39527
5512,39055
5905,39055
" /> 
<polyline style="fill-rule:evenodd;"
points="6889,39055
6889,39527
6496,39527
6496,39055
6889,39055
" /> 
<polyline style="fill-rule:evenodd;"
points="7873,39055
7873,39527
7480,39527
7480,39055
7873,39055
" /> 
<polyline style="fill-rule:evenodd;"
points="12421,34003
12421,33334
13090,33334
13090,34003
12421,34003
" /> 
</g>
<g style="fill:#000000; fill-opacity:1.0; 
stroke:#000000; stroke-width:669.291; stroke-opacity:1; 
stroke-linecap:round; stroke-linejoin:round;">
</g>
<g style="fill:#000000; fill-opacity:0.0; 
stroke:#000000; stroke-width:669.291; stroke-opacity:1; 
stroke-linecap:round; stroke-linejoin:round;">
<path d="M12755 34669
L12755 34669
" />
<path d="M12755 35669
L12755 35669
" />
<path d="M12755 36669
L12755 36669
" />
<path d="M12755 37669
L12755 37669
" />
</g>
<g style="fill:#000000; fill-opacity:0.0; 
stroke:#000000; stroke-width:0; stroke-opacity:1; 
stroke-linecap:round; stroke-linejoin:round;">
</g>
<g style="fill:#000000; fill-opacity:1.0; 
stroke:#000000; stroke-width:0; stroke-opacity:1; 
stroke-linecap:round; stroke-linejoin:round;">
<polyline style="fill-rule:evenodd;"
points="11175,36073
11185,36074
11194,36077
11204,36080
11212,36084
11221,36089
11228,36095
11235,36101
11242,36108
11248,36116
11253,36124
11257,36133
11260,36142
11262,36152
11264,36161
11264,36171
11264,36663
11264,36673
11262,36682
11260,36691
11257,36701
11253,36709
11248,36718
11242,36725
11235,36732
11228,36739
11221,36745
11212,36750
11204,36754
11194,36757
11185,36759
11175,36761
11166,36761
10802,36761
10792,36761
10782,36759
10773,36757
10764,36754
10755,36750
10747,36745
10739,36739
10732,36732
10726,36725
10720,36718
10715,36709
10711,36701
10707,36691
10705,36682
10704,36673
10703,36663
10703,36171
10704,36161
10705,36152
10707,36142
10711,36133
10715,36124
10720,36116
10726,36108
10732,36101
10739,36095
10747,36089
10755,36084
10764,36080
10773,36077
10782,36074
10792,36073
10802,36072
11166,36072
11175,36073
" /> 
<polyline style="fill-rule:evenodd;"
points="10004,36073
10014,36074
10023,36077
10032,36080
10041,36084
10049,36089
10057,36095
10064,36101
10071,36108
10076,36116
10081,36124
10086,36133
10089,36142
10091,36152
10093,36161
10093,36171
10093,36663
10093,36673
10091,36682
10089,36691
10086,36701
10081,36709
10076,36718
10071,36725
10064,36732
10057,36739
10049,36745
10041,36750
10032,36754
10023,36757
10014,36759
10004,36761
9995,36761
9630,36761
9621,36761
9611,36759
9602,36757
9593,36754
9584,36750
9576,36745
9568,36739
9561,36732
9554,36725
9549,36718
9544,36709
9539,36701
9536,36691
9534,36682
9532,36673
9532,36663
9532,36171
9532,36161
9534,36152
9536,36142
9539,36133
9544,36124
9549,36116
9554,36108
9561,36101
9568,36095
9576,36089
9584,36084
9593,36080
9602,36077
9611,36074
9621,36073
9630,36072
9995,36072
10004,36073
" /> 
<polyline style="fill-rule:evenodd;"
points="2854,36363
2863,36365
2873,36367
2882,36370
2890,36374
2899,36379
2906,36385
2914,36392
2920,36399
2926,36406
2931,36415
2935,36423
2938,36433
2941,36442
2942,36451
2942,36461
2942,36825
2942,36835
2941,36844
2938,36854
2935,36863
2931,36872
2926,36880
2920,36888
2914,36895
2906,36901
2899,36907
2890,36912
2882,36916
2873,36919
2863,36922
2854,36923
2844,36924
2352,36924
2342,36923
2333,36922
2323,36919
2314,36916
2305,36912
2297,36907
2289,36901
2282,36895
2276,36888
2270,36880
2265,36872
2261,36863
2258,36854
2255,36844
2254,36835
2253,36825
2253,36461
2254,36451
2255,36442
2258,36433
2261,36423
2265,36415
2270,36406
2276,36399
2282,36392
2289,36385
2297,36379
2305,36374
2314,36370
2323,36367
2333,36365
2342,36363
2352,36363
2844,36363
2854,36363
" /> 
<polyline style="fill-rule:evenodd;"
points="2854,35192
2863,35193
2873,35196
2882,35199
2890,35203
2899,35208
2906,35214
2914,35220
2920,35227
2926,35235
2931,35243
2935,35252
2938,35261
2941,35271
2942,35280
2942,35290
2942,35654
2942,35664
2941,35673
2938,35683
2935,35692
2931,35700
2926,35709
2920,35716
2914,35724
2906,35730
2899,35736
2890,35741
2882,35745
2873,35748
2863,35751
2854,35752
2844,35752
2352,35752
2342,35752
2333,35751
2323,35748
2314,35745
2305,35741
2297,35736
2289,35730
2282,35724
2276,35716
2270,35709
2265,35700
2261,35692
2258,35683
2255,35673
2254,35664
2253,35654
2253,35290
2254,35280
2255,35271
2258,35261
2261,35252
2265,35243
2270,35235
2276,35227
2282,35220
2289,35214
2297,35208
2305,35203
2314,35199
2323,35196
2333,35193
2342,35192
2352,35191
2844,35191
2854,35192
" /> 
<polyline style="fill-rule:evenodd;"
points="5275,35964
5275,35374
6062,35374
6062,35964
5275,35964
" /> 
<polyline style="fill-rule:evenodd;"
points="5275,37775
5275,37185
6062,37185
6062,37775
5275,37775
" /> 
<polyline style="fill-rule:evenodd;"
points="5275,36870
5275,36279
6062,36279
6062,36870
5275,36870
" /> 
<polyline style="fill-rule:evenodd;"
points="7755,37322
7755,35826
8543,35826
8543,37322
7755,37322
" /> 
<polyline style="fill-rule:evenodd;"
points="7716,33897
7716,32401
8503,32401
8503,33897
7716,33897
" /> 
<polyline style="fill-rule:evenodd;"
points="5236,33444
5236,32854
6023,32854
6023,33444
5236,33444
" /> 
<polyline style="fill-rule:evenodd;"
points="5236,34350
5236,33759
6023,33759
6023,34350
5236,34350
" /> 
<polyline style="fill-rule:evenodd;"
points="5236,32539
5236,31948
6023,31948
6023,32539
5236,32539
" /> 
<polyline style="fill-rule:evenodd;"
points="10861,32175
10870,32177
10879,32179
10889,32182
10897,32186
10906,32191
10913,32197
10920,32204
10927,32211
10933,32218
10938,32227
10942,32235
10945,32245
10947,32254
10949,32263
10949,32273
10949,32765
10949,32775
10947,32784
10945,32794
10942,32803
10938,32812
10933,32820
10927,32828
10920,32835
10913,32841
10906,32847
10897,32852
10889,32856
10879,32859
10870,32862
10861,32863
10851,32864
10487,32864
10477,32863
10468,32862
10458,32859
10449,32856
10440,32852
10432,32847
10424,32841
10417,32835
10411,32828
10405,32820
10400,32812
10396,32803
10393,32794
10390,32784
10389,32775
10388,32765
10388,32273
10389,32263
10390,32254
10393,32245
10396,32235
10400,32227
10405,32218
10411,32211
10417,32204
10424,32197
10432,32191
10440,32186
10449,32182
10458,32179
10468,32177
10477,32175
10487,32175
10851,32175
10861,32175
" /> 
<polyline style="fill-rule:evenodd;"
points="9689,32175
9699,32177
9708,32179
9717,32182
9726,32186
9734,32191
9742,32197
9749,32204
9756,32211
9761,32218
9766,32227
9771,32235
9774,32245
9776,32254
9778,32263
9778,32273
9778,32765
9778,32775
9776,32784
9774,32794
9771,32803
9766,32812
9761,32820
9756,32828
9749,32835
9742,32841
9734,32847
9726,32852
9717,32856
9708,32859
9699,32862
9689,32863
9680,32864
9315,32864
9306,32863
9296,32862
9287,32859
9278,32856
9269,32852
9261,32847
9253,32841
9246,32835
9239,32828
9234,32820
9229,32812
9225,32803
9221,32794
9219,32784
9217,32775
9217,32765
9217,32273
9217,32263
9219,32254
9221,32245
9225,32235
9229,32227
9234,32218
9239,32211
9246,32204
9253,32197
9261,32191
9269,32186
9278,32182
9287,32179
9296,32177
9306,32175
9315,32175
9680,32175
9689,32175
" /> 
<polyline style="fill-rule:evenodd;"
points="10767,33351
10777,33353
10786,33355
10795,33358
10804,33363
10812,33367
10820,33373
10827,33380
10833,33387
10839,33395
10844,33403
10848,33412
10852,33421
10854,33430
10855,33440
10856,33449
10856,33813
10855,33823
10854,33833
10852,33842
10848,33851
10844,33860
10839,33868
10833,33876
10827,33883
10820,33890
10812,33895
10804,33900
10795,33904
10786,33908
10777,33910
10767,33911
10757,33912
10265,33912
10256,33911
10246,33910
10237,33908
10228,33904
10219,33900
10211,33895
10203,33890
10196,33883
10189,33876
10183,33868
10178,33860
10174,33851
10171,33842
10169,33833
10167,33823
10167,33813
10167,33449
10167,33440
10169,33430
10171,33421
10174,33412
10178,33403
10183,33395
10189,33387
10196,33380
10203,33373
10211,33367
10219,33363
10228,33358
10237,33355
10246,33353
10256,33351
10265,33351
10757,33351
10767,33351
" /> 
<polyline style="fill-rule:evenodd;"
points="10767,34523
10777,34524
10786,34526
10795,34530
10804,34534
10812,34539
10820,34544
10827,34551
10833,34558
10839,34566
10844,34574
10848,34583
10852,34592
10854,34601
10855,34611
10856,34621
10856,34985
10855,34994
10854,35004
10852,35013
10848,35022
10844,35031
10839,35039
10833,35047
10827,35054
10820,35061
10812,35067
10804,35072
10795,35076
10786,35079
10777,35081
10767,35083
10757,35083
10265,35083
10256,35083
10246,35081
10237,35079
10228,35076
10219,35072
10211,35067
10203,35061
10196,35054
10189,35047
10183,35039
10178,35031
10174,35022
10171,35013
10169,35004
10167,34994
10167,34985
10167,34621
10167,34611
10169,34601
10171,34592
10174,34583
10178,34574
10183,34566
10189,34558
10196,34551
10203,34544
10211,34539
10219,34534
10228,34530
10237,34526
10246,34524
10256,34523
10265,34522
10757,34522
10767,34523
" /> 
</g>
<g style="fill:#000000; fill-opacity:1.0; 
stroke:#000000; stroke-width:150; stroke-opacity:1; 
stroke-linecap:round; stroke-linejoin:round;">
</g>
<g style="fill:#000000; fill-opacity:0.0; 
stroke:#000000; stroke-width:150; stroke-opacity:1; 
stroke-linecap:round; stroke-linejoin:round;">
<path d="M3831 38582
L3240 37992
" />
<path d="M3240 37992
L2598 37992
" />
<path d="M6023 38582
L3831 38582
" />
<path d="M6692 39291
L6692 39252
" />
<path d="M6692 39252
L6023 38582
" />
<path d="M2598 35472
L2598 34055
" />
<path d="M2795 35669
L2598 35472
" />
<path d="M5669 35669
L2795 35669
" />
<path d="M11850 35669
L12755 35669
" />
<path d="M10984 36417
L11102 36417
" />
<path d="M11102 36417
L11850 35669
" />
<path d="M9498 32017
L9498 32519
" />
<path d="M6685 31732
L9212 31732
" />
<path d="M5629 32244
L6173 32244
" />
<path d="M9212 31732
L9498 32017
" />
<path d="M6173 32244
L6685 31732
" />
<path d="M9783 31732
L9498 32017
" />
<path d="M12913 31732
L9783 31732
" />
<path d="M13582 32401
L12913 31732
" />
<path d="M13582 35236
L13582 32401
" />
<path d="M12755 35669
L13149 35669
" />
<path d="M13149 35669
L13582 35236
" />
<path d="M4409 32244
L2598 34055
" />
<path d="M5629 32244
L4409 32244
" />
<path d="M12718 33631
L12755 33669
" />
<path d="M10511 33631
L12718 33631
" />
<path d="M10511 32677
L10669 32519
" />
<path d="M10511 33631
L10511 32677
" />
<path d="M6173 33149
L8110 33149
" />
<path d="M5629 33149
L6173 33149
" />
<path d="M12282 34669
L11825 34212
" />
<path d="M12755 34669
L12282 34669
" />
<path d="M11825 34212
L9724 34212
" />
<path d="M8661 33149
L8110 33149
" />
<path d="M9724 34212
L8661 33149
" />
<path d="M6212 36574
L8149 36574
" />
<path d="M5669 36574
L6212 36574
" />
<path d="M9655 36574
L9812 36417
" />
<path d="M8149 36574
L9655 36574
" />
<path d="M9812 36899
L9812 36417
" />
<path d="M10196 37283
L9812 36899
" />
<path d="M11574 37283
L10196 37283
" />
<path d="M12755 36669
L12188 36669
" />
<path d="M12188 36669
L11574 37283
" />
<path d="M9812 35935
L9812 36033
" />
<path d="M10511 34803
L10511 35236
" />
<path d="M9812 36033
L9812 36417
" />
<path d="M10511 35236
L9812 35935
" />
<path d="M6212 37480
L5669 37480
" />
<path d="M7676 39291
L7676 38700
" />
<path d="M6456 37480
L6212 37480
" />
<path d="M7676 38700
L6456 37480
" />
<path d="M4685 37480
L5669 37480
" />
<path d="M4173 36259
L4173 36968
" />
<path d="M4173 36968
L4685 37480
" />
<path d="M3779 36653
L4173 36259
" />
<path d="M2598 36643
L2608 36653
" />
<path d="M2608 36653
L3779 36653
" />
<path d="M7676 38701
L7676 39291
" />
<path d="M8110 38267
L7676 38701
" />
<path d="M12755 37669
L12157 38267
" />
<path d="M12157 38267
L8110 38267
" />
<path d="M5086 34055
L5629 34055
" />
<path d="M4886 34055
L5086 34055
" />
<path d="M4173 34768
L4886 34055
" />
<path d="M4173 35088
L4173 34768
" />
</g>
<g style="fill:#FFFFFF; fill-opacity:0.0; 
stroke:#FFFFFF; stroke-width:150; stroke-opacity:1; 
stroke-linecap:round; stroke-linejoin:round;">
</g>
<g style="fill:#FFFFFF; fill-opacity:1.0; 
stroke:#FFFFFF; stroke-width:0; stroke-opacity:1; 
stroke-linecap:round; stroke-linejoin:round;">
<circle cx="2598.43" cy="37992.1" r="255.906" /> 
</g>
<g style="fill:#FFFFFF; fill-opacity:1.0; 
stroke:#FFFFFF; stroke-width:39.3701; stroke-opacity:1; 
stroke-linecap:round; stroke-linejoin:round;">
</g>
<g style="fill:#FFFFFF; fill-opacity:1.0; 
stroke:#FFFFFF; stroke-width:0; stroke-opacity:1; 
stroke-linecap:round; stroke-linejoin:round;">
<circle cx="2598.43" cy="34055.1" r="255.906" /> 
</g>
<g style="fill:#FFFFFF; fill-opacity:1.0; 
stroke:#FFFFFF; stroke-width:39.3701; stroke-opacity:1; 
stroke-linecap:round; stroke-linejoin:round;">
</g>
<g style="fill:#FFFFFF; fill-opacity:1.0; 
stroke:#FFFFFF; stroke-width:0; stroke-opacity:1; 
stroke-linecap:round; stroke-linejoin:round;">
<circle cx="12755.9" cy="33669.3" r="196.85" /> 
</g>
<g style="fill:#FFFFFF; fill-opacity:1.0; 
stroke:#FFFFFF; stroke-width:39.3701; stroke-opacity:1; 
stroke-linecap:round; stroke-linejoin:round;">
</g>
<g style="fill:#FFFFFF; fill-opacity:1.0; 
stroke:#FFFFFF; stroke-width:0; stroke-opacity:1; 
stroke-linecap:round; stroke-linejoin:round;">
<circle cx="12755.9" cy="34669.3" r="196.85" /> 
</g>
<g style="fill:#FFFFFF; fill-opacity:1.0; 
stroke:#FFFFFF; stroke-width:39.3701; stroke-opacity:1; 
stroke-linecap:round; stroke-linejoin:round;">
</g>
<g style="fill:#FFFFFF; fill-opacity:1.0; 
stroke:#FFFFFF; stroke-width:0; stroke-opacity:1; 
stroke-linecap:round; stroke-linejoin:round;">
<circle cx="12755.9" cy="35669.3" r="196.85" /> 
</g>
<g style="fill:#FFFFFF; fill-opacity:1.0; 
stroke:#FFFFFF; stroke-width:39.3701; stroke-opacity:1; 
stroke-linecap:round; stroke-linejoin:round;">
</g>
<g style="fill:#FFFFFF; fill-opacity:1.0; 
stroke:#FFFFFF; stroke-width:0; stroke-opacity:1; 
stroke-linecap:round; stroke-linejoin:round;">
<circle cx="12755.9" cy="36669.3" r="196.85" /> 
</g>
<g style="fill:#FFFFFF; fill-opacity:1.0; 
stroke:#FFFFFF; stroke-width:39.3701; stroke-opacity:1; 
stroke-linecap:round; stroke-linejoin:round;">
</g>
<g style="fill:#FFFFFF; fill-opacity:1.0; 
stroke:#FFFFFF; stroke-width:0; stroke-opacity:1; 
stroke-linecap:round; stroke-linejoin:round;">
<circle cx="12755.9" cy="37669.3" r="196.85" /> 
</g>
<g style="fill:#FFFFFF; fill-opacity:1.0; 
stroke:#FFFFFF; stroke-width:39.3701; stroke-opacity:1; 
stroke-linecap:round; stroke-linejoin:round;">
</g>
<g style="fill:#000000; fill-opacity:1.0; 
stroke:#000000; stroke-width:39.3701; stroke-opacity:1; 
stroke-linecap:round; stroke-linejoin:round;">
</g> 
</svg>
