EESchema Schematic File Version 4
LIBS:Motor driver-cache
EELAYER 26 0
EELAYER END
$Descr User 5906 6693
encoding utf-8
Sheet 1 1
Title "A4982 Stepper motor driver"
Date "2018-08-23"
Rev "1.0"
Comp ""
Comment1 ""
Comment2 ""
Comment3 ""
Comment4 ""
$EndDescr
$Comp
L A4982SLPTR-T:A4982SLPTR-T U1
U 1 1 5B791175
P 3930 2035
F 0 "U1" H 3930 3405 50  0000 C CNN
F 1 "A4982SLPTR-T" H 3930 3314 50  0000 C CNN
F 2 "A4982SLPTR-T:SOP65P640X120-25N" H 3930 2035 50  0001 L BNN
F 3 "" H 3930 2035 50  0001 L BNN
F 4 "DMOS Microstepping Driver with Translator and Overcurrent Protection" H 3930 2035 50  0001 L BNN "Field4"
F 5 "TSSOP-24 Allegro MicroSystems LLC" H 3930 2035 50  0001 L BNN "Field5"
F 6 "" H 3930 2035 50  0001 L BNN "Field6"
F 7 "A4982SLPTR-T" H 3930 2035 50  0001 L BNN "Field7"
F 8 "Allegro" H 3930 2035 50  0001 L BNN "Field8"
	1    3930 2035
	1    0    0    -1  
$EndComp
$Comp
L Connector:Conn_01x04_Male J1
U 1 1 5B79130C
P 2495 4030
F 0 "J1" V 2365 3945 50  0000 L CNN
F 1 "A4982 conn" V 2445 3755 50  0000 L CNN
F 2 "Connector_PinHeader_2.54mm:PinHeader_1x04_P2.54mm_Vertical" H 2495 4030 50  0001 C CNN
F 3 "~" H 2495 4030 50  0001 C CNN
	1    2495 4030
	0    -1   1    0   
$EndComp
Text GLabel 2595 4230 3    50   Input ~ 0
MOTOR_1B
Text GLabel 2395 4230 3    50   Input ~ 0
MOTOR_1A
Text GLabel 2495 4230 3    50   Input ~ 0
MOTOR_2A
Text GLabel 2695 4230 3    50   Input ~ 0
MOTOR_2B
Text GLabel 4630 1335 2    50   Input ~ 0
MOTOR_1B
Text GLabel 4630 1035 2    50   Input ~ 0
MOTOR_1A
Text GLabel 4630 1135 2    50   Input ~ 0
MOTOR_2A
Text GLabel 4630 1435 2    50   Input ~ 0
MOTOR_2B
Text GLabel 3230 2335 0    50   Input ~ 0
STEP
Text GLabel 3230 2535 0    50   Input ~ 0
DIR
$Comp
L power:GND #PWR0102
U 1 1 5B79179B
P 3160 3285
F 0 "#PWR0102" H 3160 3035 50  0001 C CNN
F 1 "GND" H 3165 3112 50  0000 C CNN
F 2 "" H 3160 3285 50  0001 C CNN
F 3 "" H 3160 3285 50  0001 C CNN
	1    3160 3285
	1    0    0    -1  
$EndComp
Wire Wire Line
	3230 3035 3160 3035
Wire Wire Line
	3160 3235 3230 3235
Wire Wire Line
	3230 3135 3160 3135
Connection ~ 3160 3135
Wire Wire Line
	3160 3135 3160 3235
Connection ~ 3160 3235
Wire Wire Line
	3160 3235 3160 3285
$Comp
L Device:C C1
U 1 1 5B79A04B
P 2520 1475
F 0 "C1" H 2405 1429 50  0000 R CNN
F 1 "0.1uF" H 2405 1520 50  0000 R CNN
F 2 "Capacitor_SMD:C_1206_3216Metric_Pad1.42x1.75mm_HandSolder" H 2558 1325 50  0001 C CNN
F 3 "~" H 2520 1475 50  0001 C CNN
	1    2520 1475
	-1   0    0    1   
$EndComp
Wire Wire Line
	3230 1135 3155 1135
Wire Wire Line
	3155 1135 3155 1235
Wire Wire Line
	3155 1235 3230 1235
$Comp
L power:GND #PWR0103
U 1 1 5B79A4ED
P 3230 2135
F 0 "#PWR0103" H 3230 1885 50  0001 C CNN
F 1 "GND" V 3235 1962 50  0000 C CNN
F 2 "" H 3230 2135 50  0001 C CNN
F 3 "" H 3230 2135 50  0001 C CNN
	1    3230 2135
	0    1    1    0   
$EndComp
Wire Wire Line
	3160 3035 3160 3135
$Comp
L Device:C C4
U 1 1 5B7E672B
P 2120 1595
F 0 "C4" H 2005 1549 50  0000 R CNN
F 1 "0.1uF" H 2005 1640 50  0000 R CNN
F 2 "Capacitor_SMD:C_1206_3216Metric_Pad1.42x1.75mm_HandSolder" H 2158 1445 50  0001 C CNN
F 3 "~" H 2120 1595 50  0001 C CNN
	1    2120 1595
	-1   0    0    1   
$EndComp
Wire Wire Line
	2840 1535 2840 1625
Wire Wire Line
	2840 1625 2520 1625
Wire Wire Line
	2840 1535 3230 1535
Wire Wire Line
	2840 1435 2840 1325
Wire Wire Line
	2840 1325 2520 1325
Wire Wire Line
	2840 1435 3230 1435
$Comp
L Device:C C5
U 1 1 5B7E7ABB
P 2095 2085
F 0 "C5" H 1980 2039 50  0000 R CNN
F 1 "0.22uF" H 1980 2130 50  0000 R CNN
F 2 "Capacitor_SMD:C_0805_2012Metric_Pad1.15x1.40mm_HandSolder" H 2133 1935 50  0001 C CNN
F 3 "~" H 2095 2085 50  0001 C CNN
	1    2095 2085
	-1   0    0    1   
$EndComp
$Comp
L power:GND #PWR06
U 1 1 5B7E7F51
P 2095 2235
F 0 "#PWR06" H 2095 1985 50  0001 C CNN
F 1 "GND" H 2100 2062 50  0000 C CNN
F 2 "" H 2095 2235 50  0001 C CNN
F 3 "" H 2095 2235 50  0001 C CNN
	1    2095 2235
	1    0    0    -1  
$EndComp
Wire Wire Line
	3230 1835 2120 1835
Wire Wire Line
	2120 1835 2120 1745
Wire Wire Line
	2120 1445 2120 1235
Wire Wire Line
	2120 1235 3155 1235
Connection ~ 3155 1235
$Comp
L Device:C C3
U 1 1 5B7E9727
P 1675 1595
F 0 "C3" H 1560 1549 50  0000 R CNN
F 1 "0.22uF" H 1560 1640 50  0000 R CNN
F 2 "Capacitor_SMD:C_0805_2012Metric_Pad1.15x1.40mm_HandSolder" H 1713 1445 50  0001 C CNN
F 3 "~" H 1675 1595 50  0001 C CNN
	1    1675 1595
	-1   0    0    1   
$EndComp
$Comp
L power:GND #PWR03
U 1 1 5B7E9BF4
P 1675 1745
F 0 "#PWR03" H 1675 1495 50  0001 C CNN
F 1 "GND" H 1680 1572 50  0000 C CNN
F 2 "" H 1675 1745 50  0001 C CNN
F 3 "" H 1675 1745 50  0001 C CNN
	1    1675 1745
	1    0    0    -1  
$EndComp
$Comp
L power:GND #PWR02
U 1 1 5B7E9C4A
P 1240 1740
F 0 "#PWR02" H 1240 1490 50  0001 C CNN
F 1 "GND" H 1245 1567 50  0000 C CNN
F 2 "" H 1240 1740 50  0001 C CNN
F 3 "" H 1240 1740 50  0001 C CNN
	1    1240 1740
	1    0    0    -1  
$EndComp
Wire Wire Line
	1675 1445 1675 1235
Wire Wire Line
	1675 1235 2120 1235
Connection ~ 2120 1235
Wire Wire Line
	1240 1440 1240 1235
Wire Wire Line
	1240 1235 1675 1235
Connection ~ 1675 1235
Wire Wire Line
	1240 1235 1240 1145
Connection ~ 1240 1235
$Comp
L power:VCC #PWR010
U 1 1 5B7EAB1E
P 3230 1035
F 0 "#PWR010" H 3230 885 50  0001 C CNN
F 1 "VCC" H 3247 1208 50  0000 C CNN
F 2 "" H 3230 1035 50  0001 C CNN
F 3 "" H 3230 1035 50  0001 C CNN
	1    3230 1035
	1    0    0    -1  
$EndComp
$Comp
L Device:C C6
U 1 1 5B7EAD5A
P 2315 2615
F 0 "C6" H 2200 2569 50  0000 R CNN
F 1 "0.1uF" H 2200 2660 50  0000 R CNN
F 2 "Capacitor_SMD:C_1206_3216Metric_Pad1.42x1.75mm_HandSolder" H 2353 2465 50  0001 C CNN
F 3 "~" H 2315 2615 50  0001 C CNN
	1    2315 2615
	-1   0    0    1   
$EndComp
$Comp
L power:GND #PWR08
U 1 1 5B7EC007
P 2315 2765
F 0 "#PWR08" H 2315 2515 50  0001 C CNN
F 1 "GND" H 2320 2592 50  0000 C CNN
F 2 "" H 2315 2765 50  0001 C CNN
F 3 "" H 2315 2765 50  0001 C CNN
	1    2315 2765
	1    0    0    -1  
$EndComp
$Comp
L power:+12V #PWR01
U 1 1 5B7EC291
P 1240 1145
F 0 "#PWR01" H 1240 995 50  0001 C CNN
F 1 "+12V" H 1255 1318 50  0000 C CNN
F 2 "" H 1240 1145 50  0001 C CNN
F 3 "" H 1240 1145 50  0001 C CNN
	1    1240 1145
	1    0    0    -1  
$EndComp
$Comp
L power:GND #PWR05
U 1 1 5B7EDC6A
P 1190 4330
F 0 "#PWR05" H 1190 4080 50  0001 C CNN
F 1 "GND" H 1195 4157 50  0000 C CNN
F 2 "" H 1190 4330 50  0001 C CNN
F 3 "" H 1190 4330 50  0001 C CNN
	1    1190 4330
	1    0    0    -1  
$EndComp
$Comp
L power:+12V #PWR04
U 1 1 5B7EDCD8
P 1190 3870
F 0 "#PWR04" H 1190 3720 50  0001 C CNN
F 1 "+12V" H 1205 4043 50  0000 C CNN
F 2 "" H 1190 3870 50  0001 C CNN
F 3 "" H 1190 3870 50  0001 C CNN
	1    1190 3870
	1    0    0    -1  
$EndComp
$Comp
L Connector:Conn_01x03_Male J3
U 1 1 5B7EDE22
P 1875 4025
F 0 "J3" V 1750 4010 50  0000 R CNN
F 1 "power conn" V 1810 4225 50  0000 R CNN
F 2 "Connector_PinHeader_2.54mm:PinHeader_1x03_P2.54mm_Vertical" H 1875 4025 50  0001 C CNN
F 3 "~" H 1875 4025 50  0001 C CNN
	1    1875 4025
	0    -1   1    0   
$EndComp
$Comp
L power:VCC #PWR07
U 1 1 5B7EEEB3
P 1875 4225
F 0 "#PWR07" H 1875 4075 50  0001 C CNN
F 1 "VCC" V 1893 4398 50  0000 C CNN
F 2 "" H 1875 4225 50  0001 C CNN
F 3 "" H 1875 4225 50  0001 C CNN
	1    1875 4225
	-1   0    0    1   
$EndComp
$Comp
L power:GND #PWR09
U 1 1 5B7EEF40
P 1975 4225
F 0 "#PWR09" H 1975 3975 50  0001 C CNN
F 1 "GND" V 1980 4052 50  0000 C CNN
F 2 "" H 1975 4225 50  0001 C CNN
F 3 "" H 1975 4225 50  0001 C CNN
	1    1975 4225
	1    0    0    -1  
$EndComp
Text GLabel 1775 4225 3    50   Input ~ 0
REF
$Comp
L Connector:Conn_01x02_Male J4
U 1 1 5B7F1BC4
P 3160 4045
F 0 "J4" V 3045 3960 50  0000 L CNN
F 1 "Drive conn" V 3115 3790 50  0000 L CNN
F 2 "Connector_PinHeader_2.54mm:PinHeader_1x02_P2.54mm_Vertical" H 3160 4045 50  0001 C CNN
F 3 "~" H 3160 4045 50  0001 C CNN
	1    3160 4045
	0    1    1    0   
$EndComp
Text GLabel 3060 4245 3    50   Input ~ 0
STEP
Text GLabel 3160 4245 3    50   Input ~ 0
DIR
$Comp
L PJ-002AH-SMT-TR:PJ-002AH-SMT-TR J2
U 1 1 5B7E918D
P 990 4165
F 0 "J2" H 959 4505 50  0000 C CNN
F 1 "PJ-002AH-SMT-TR" H 959 4414 50  0000 C CNN
F 2 "PJ-002AH-SMT-TR:CUI_PJ-002AH-SMT-TR" H 990 4165 50  0001 L BNN
F 3 "CUI" H 990 4165 50  0001 L BNN
F 4 "None" H 990 4165 50  0001 L BNN "Field4"
F 5 "Good" H 990 4165 50  0001 L BNN "Field5"
F 6 "24 VDC 5 A Surface Mount Unshielded 2 Conductors 3 Contacts Male Power Jack" H 990 4165 50  0001 L BNN "Field6"
F 7 "0.88 USD" H 990 4165 50  0001 L BNN "Field7"
F 8 "PJ-002AH-SMT-TR" H 990 4165 50  0001 L BNN "Field8"
	1    990  4165
	1    0    0    -1  
$EndComp
Wire Wire Line
	1190 4065 1190 3870
Wire Wire Line
	1190 4265 1190 4165
Wire Wire Line
	1190 4330 1190 4265
Connection ~ 1190 4265
Text GLabel 4320 4215 3    50   Input ~ 0
RESET
Text GLabel 4520 4215 3    50   Input ~ 0
MS1
Text GLabel 4420 4215 3    50   Input ~ 0
MS2
$Comp
L power:VCC #PWR014
U 1 1 5B7E85BD
P 3230 2235
F 0 "#PWR014" H 3230 2085 50  0001 C CNN
F 1 "VCC" V 3248 2362 50  0000 L CNN
F 2 "" H 3230 2235 50  0001 C CNN
F 3 "" H 3230 2235 50  0001 C CNN
	1    3230 2235
	0    -1   -1   0   
$EndComp
Text GLabel 3230 1635 0    50   Input ~ 0
MS1
Text GLabel 3230 1735 0    50   Input ~ 0
MS2
$Comp
L Connector:Conn_01x03_Male J5
U 1 1 5B7F3A47
P 4420 4015
F 0 "J5" V 4295 4000 50  0000 R CNN
F 1 "extension conn" V 4355 4215 50  0000 R CNN
F 2 "Connector_PinHeader_2.54mm:PinHeader_1x03_P2.54mm_Vertical" H 4420 4015 50  0001 C CNN
F 3 "~" H 4420 4015 50  0001 C CNN
	1    4420 4015
	0    -1   1    0   
$EndComp
$Comp
L Device:R R?
U 1 1 5B801407
P 2680 2945
F 0 "R?" H 2750 2991 50  0000 L CNN
F 1 "R100" H 2750 2900 50  0000 L CNN
F 2 "Resistor_SMD:R_1206_3216Metric_Pad1.42x1.75mm_HandSolder" V 2610 2945 50  0001 C CNN
F 3 "~" H 2680 2945 50  0001 C CNN
	1    2680 2945
	-1   0    0    1   
$EndComp
$Comp
L Device:R R?
U 1 1 5B801669
P 2885 3040
F 0 "R?" H 2955 3086 50  0000 L CNN
F 1 "R100" H 2955 2995 50  0000 L CNN
F 2 "Resistor_SMD:R_1206_3216Metric_Pad1.42x1.75mm_HandSolder" V 2815 3040 50  0001 C CNN
F 3 "~" H 2885 3040 50  0001 C CNN
	1    2885 3040
	1    0    0    -1  
$EndComp
Wire Wire Line
	2680 2735 2680 2795
Wire Wire Line
	2885 2835 2885 2890
Wire Wire Line
	2885 3190 2885 3235
Wire Wire Line
	2680 3095 2680 3235
Wire Wire Line
	2120 2435 2315 2435
Wire Wire Line
	2315 2465 2315 2435
Connection ~ 2315 2435
Wire Wire Line
	2095 1935 3230 1935
Wire Wire Line
	2315 2435 3230 2435
Connection ~ 2885 3235
Wire Wire Line
	2885 3235 3160 3235
Wire Wire Line
	2680 3235 2885 3235
Wire Wire Line
	2680 2735 3230 2735
Wire Wire Line
	2885 2835 3230 2835
NoConn ~ 3230 2635
NoConn ~ 3230 2035
$Comp
L Device:CP C?
U 1 1 5B80F04F
P 1240 1590
F 0 "C?" H 1358 1636 50  0000 L CNN
F 1 "47uF" H 1358 1545 50  0000 L CNN
F 2 "" H 1278 1440 50  0001 C CNN
F 3 "~" H 1240 1590 50  0001 C CNN
	1    1240 1590
	1    0    0    -1  
$EndComp
$Comp
L Device:R_POT RV?
U 1 1 5B80F6B3
P 1680 2450
F 0 "RV?" H 1610 2496 50  0000 R CNN
F 1 "R_POT" H 1610 2405 50  0000 R CNN
F 2 "" H 1680 2450 50  0001 C CNN
F 3 "~" H 1680 2450 50  0001 C CNN
	1    1680 2450
	1    0    0    -1  
$EndComp
$EndSCHEMATC
